{
    "berita" : [
        {
            "idKategori":2,
            "judulBerita": "Review Harry Potter 20 th Anniversary: Return to Hogwarts",
            "sumberBerita": "cinemags.co.id",
            "isMovieNews":true,
            "isSerialNews":false,
            "jumlahLihat":0,
            "jumlahLike":0,
            "jumlahKomen":0,
            "pilihan":false,
            "isiBerita":"Review Harry Potter 20 th Anniversary: Return to Hogwarts. oleh Mary Rizka.\r\n\nSudah 10 tahun sejak Film Harry Potter terakhir, Harry Potter and the Deathly Hallows part. 2, hadir di bioskop di seluruh dunia pada 15 July 2011.\r\n\n20 tahun lamanya sejak film pertamanya, Harry Potter and The Philosophers Stone di rilis. Harry Potter kembali lagi memberikan segelintir mantra keajaiban di tahun baru dengan merilis Harry Potter 20th Anniversary - Return To Hogwarts di HBO Max (Amerika) dan HBO Go (Asia).\r\n\nFilm Dokumenter ini disutradarai oleh Eran Creevy, Joe Pearlman, Giorgio Testi, membahas proses perfilman film seri Harry Potter selama 10 tahun lamanya dan dikemas layaknya acara talk-show.\r\n\nHampir semua jejeran pemain kembali lagi untuk reuni di set Hogwarts, membawa nuansa Nostalgia yang tidak terelakan lagi.\r\n\nSetiap dari mereka menceritakan pengalaman mereka bertumbuh bersama karakter yang mereka perankan. Pembukaan dokumenter ini juga ditata dengan sangat menarik, para pemain yang berada di tempat yang berbeda-beda di London mendapat surat bahwa mereka diundang kembali ke Hogwarts.\r\n\nSekuens ini juga menunjukan mereka segera bersiap-siap menaiki kereta Hogwarts Express bagaikan benar-benar pergi ke Hogwarts. Creevy, Perlman, Testi berhasil mengemas cerita yang begitu banyak menjadi beberapa babak, secara total ada delapan babak yang disajikan, setiap babak ini mengisahkan proses produksi setiap film.\r\n\nAdanya babak-babak ini membuat penonton bisa mengikuti alur perkembangan pertumbuhan karakter dan juga para aktor yang memerankan mereka. Para pemain memang sangat terlihat dekat dan nyaman dengan kehadiran satu sama lainnya, mereka terlihat pertama kali bertemu lagi setelah sekian lama tidak bertemu.\r\n\nEmma Watson kembali duduk dengan Daniel Radcliffe dan Rupert Grint, setelah terakhir kali melihat penampilannya sebagai Meg March di Little Women (2019).\r\n\nRadcliffe dan Grint juga telah melakukan banyak projek lainnya pasca-Potter, Radcliffe memerankan Miles Casanova di Guns Akimbo (2019), dan Grint sebagai Julian Pearce di series Apple TV, Servant.\r\n\nIni pertama kalinya ketiga Golden Trio (Sebutan Harry, Ron, dan Hermione) bertemu kembali setelah sekian lama berpisah dan melanjutkan perjalanan karir mereka di Hollywood. Ada banyak hal-hal menarik yang diperbincangkan oleh ketiga-nya, salah satunya, sangat sulit bagi mereka untuk melihat siapa mereka dan siapa karakter yang mereka perankan.\r\n\n“Ini mungkin adalah salah satu bentuk 'Method Acting' paling ekstrim,” ujar Watson.\r\n\nPasalnya, ketiga pemeran utama ini besar di tempat syuting, mereka melakukan syuting film setiap 1-2 tahun sekali dan juga bersekolah di sana.\r\n\nBagi mereka Hogwarts benar-benar seperti rumah dan para kru dan jajaran pemain lain adalah keluarga kedua mereka. Keindahan dunia sihir dan dunia nyata sangat berbeda bagi mereka, menjadi remaja dan seorang bintang tentu dapat menjadi melelahkan, tidak ada remaja lain yang pernah mengalami kedua hal tersebut seperti para pemain Harry Potter.\r\n\nEmma Watson sempat ingin berhenti menjadi Hermione di film ke-5, sebagai yang paling muda di grup Golden Trio juga membuat Watson kelelahan mengikuti stardom sebagai Hermione, namun karena keinginan fans yang sangat mendukung, Emma melanjutkan peran ini sampai selesai.\r\n\nFilm ini benar-benar melihat sisi bagaimana aktor anak bertumbuh dengan ketenaran yang mereka dapatkan.\r\n\nSelain beberapa informasi-informasi diatas masih banyak hal lain yang diceritakan di film dokumenter ini. Saya juga sangat mengapresiasi seksi pendek yang sangat berarti dengan memberikan satu menit tribute untuk para pemain Harry Potter yang telah lebih dahulu meninggal.\r\n\nSalah satu tribute tersebut menampilkan Alan Rickman (Professor Snape), Helen McCrory (Narcissa Malfoy) yang meninggal di tahun 2021, Richard Harris (Professor Dumbledore), dan masih banyak lainnya.\r\n\nSaya mengaku ada saat saya ikut menangis dan tertawa pada adegan-adegan tertentu.\r\n\nFilm Dokumenter ini sukses menyihir para penontonnya dengan perasaan nostalgia dan sesekali harus mengusap air mata.\r\n\nSelain itu, adanya kehangatan dalam setiap adegan karena memperlihatkan kedekatan setiap aktor dan juga keterikatan mereka dengan karakter yang mereka perankan.\r\n\nFilm ini hanya melakukan wawancara dengan para pemain juga sutradara, tidak memberikan pembahasan lebih jauh mengenai Desain Produksi, jadi bagi yang ingin lebih jauh mengetahui Desain Produksi di film Harry Potter, ini bukan film dokumenter untukmu.\r\n\nNamun, banyak pengalaman mengenai proses casting, direksi, dan memerankan sebuah karakter bisa didapatkan di sini.\r\n\nJ.K Rowling sebagai penulis juga hanya muncul beberapa saat saja di film ini, rumor bahwa dia tidak hadir sebelumnya itu tidak benar.\r\n\nAda banyak informasi menarik dan cerita yang juga sangat menghangatkan diungkapkan para pemain, bahkan saya saja sebagai seorang Potterhead fanatik tidak mengetahui hal tersebut.\r\n\nFilm ini adalah film wajib untuk para Potterhead, mendekatkan para fans dengan para pemain, juga berhasil mengobati rasa rindu terhadap film-film Potter lainnya. Potterheads Indonesia dapat menyaksikan Film ini di HBO GO.",
            "sinopsis" : "Bertajuk 20th Anniversary: Return to Hogwarts, film Harry Potter kali ini akan menampilkan wawancara mendalam dengan tiga pemeran utama Harry Potter yakni Daniel Radcliffe, Emma Watson, dan Rupert Grint yang akan membahas pengalaman mereka dalam produksi film yang diadaptasi berdasarkan novel terkenal karya J. K. Rowling tersebut.",
            "bannerBerita":"https://awsimages.detik.net.id/community/media/visual/2021/12/16/harry-potter-20th-anniversary-return-to-hogwarts-2_169.jpeg?w=1200",
            "soundtrack":"https://dl.dropbox.com/s/3b5m4hoxwg7qg0w/Harry%20Potter%20Theme%20Song.mp3?dl=0",
            "tanggalDibuat":"13 Jan 2022"
        },
        {
            "idKategori":2,
            "judulBerita": "The King's Man putusan berani dari Matthew Vaughn.",
            "sumberBerita": "cinemags.co.id",
            "isMovieNews":true,
            "isSerialNews":false,
            "jumlahLihat":0,
            "jumlahLike":0,
            "jumlahKomen":0,
            "pilihan":false,
            "isiBerita":"Pada film The King's Man ini, akan terlihat bahwa muncul banyak sekali karakter, serta diperankan oleh banyak pemeran yang sama sekali baru, dengan pengaturan yang benar-benar baru. Urutan aksi yang lebih besar dari kehidupan, disertai kisah pribadi, serta juga keputusan untuk time line , kembali ke masa lalu.\r\n\nKilas balik akan asal muasal cerita The King's Man ini, Matthew Vaughn menyampaikan bahwa ia sedang menonton ulang sebuah film berjudul The Man Who Would Be King. Kemudian berfikir, ” Bukankah itu akan menjadi hebat untuk membuat The Man Who Will Be Kingsman?”\r\n\nLebih lanjut ia menyampaikan, bahwa hal semacam itu mengingatkannya , akan alasannya jatuh cinta dengan bioskop. Ide-ide tentang sejarah epik film petualangan,  dengan aktor hebat, karakter hebat, humor, kesedihan, dan hiburan. I lalu ingat akan dialog yang Harry berikan kepada Eggsy tentang bagaimana, kapan, mengapa, dan fungsi didirikannya Kingsman, sehingga akhirnya terciptalah The King's Man.\r\n\nLebih lanjut ia juga menemukan mengenai  Perjanjian Versailles, dan kemudian melihat lebih dalam pada alasan mengapa perang terjadi. Ia pun juga merasa selalu terobsesi dengan Rasputin yang menurutnya memiliki karakter yang menarik. Setelah itu proses pemilihan pemainnya pun mulai memenuhi pemikiran, agar ditemukan yang cocok untuk memerankan karakter-karakter yang baru ini.\r\n\nTerkait akan lagu yang disertakan pada film ini, ia pun menyampaikan bahwa akan ditemukan sedikit Swan Lake, dan juga ada sepenggal The Nutcracker, jadi itu seperti gabungan dari Tchaikovsky atau Boney M Rasputin. Film ini dapat dikatakan memperluas wawasannya, saat dalam proses riset dan pengerjaannya, serta ada juga beberapa bagian yang terpaksa dibuang, seperti misalnya beberapa adegan dalam perang karena terasa agak kelewatan.",
            "sinopsis" : "Ketika kumpulan tiran terburuk dan kriminal berkumpul untuk merencanakan perang untuk melenyapkan jutaan orang, seorang pria - dengan bantuan putranya, para pembantunya yang dapat dipercaya, dan gaya untuk menyisihkan - harus berpacu dengan waktu untuk menghentikan mereka.",
            "bannerBerita":"https://cinemags.co.id/wp-content/uploads/2021/12/Matthew-Vaughn-The-Kings-Man.jpeg",
            "soundtrack":"https://dl.dropbox.com/s/jcqqlk10fn5rmed/The%20King%27s%20Man-No%20Time%20for%20Emotion.mp3?dl=0",
            "tanggalDibuat":"13 Jan 2022"
        },
        {
            "idKategori":2,
            "judulBerita": "Spider-Man No Way Home Tak Bisa Ikut BAFTA 2022",
            "sumberBerita": "www.cnnindonesia.com",
            "isMovieNews":true,
            "isSerialNews":false,
            "jumlahLihat":0,
            "jumlahLike":0,
            "jumlahKomen":0,
            "pilihan":false,
            "isiBerita":"Spider-Man: No Way Home diumumkan tak bisa mendaftar untuk ajang penghargaan perfilman tertinggi Inggris, BAFTA, pada tahun ini. Penyebab satu-satunya film era pandemi yang menuai kesuksesan besar itu tak bisa masuk BAFTA adalah karena melewatkan tenggat waktu unggah di situs streaming BAFTA.\r\n\nDiberitakan Hollywood Reporter (THR) pada Senin (10/1) waktu Amerika Serikat, BAFTA mengungkapkan film yang dibintangi Tom Holland itu tak memenuhi kriteria untuk ajang penghargaan tahun ini.\r\n\nMenurut THR, sistem penilaian untuk dewan juri BAFTA kini menggunakan BAFTA Views, portal streaming daring baru dari the British Academy selaku penyelenggara ajang tersebut.\r\n\nBAFTA Views disebut diluncurkan pada musim 2020/2021 dan menyediakan seluruh film yang bisa diakses oleh seluruh anggota dewan juri dan pemilih.\r\n\nSpider-Man: No Way Home semula dijadwalkan masuk dalam situs tersebut pada 30 Desember dan memiliki empat hari penilaian oleh dewan juri sebelum tenggat akhir penilaian ronde pertama jatuh pada 3 Januari, meski kemudian tenggat waktu itu mundur karena masalah teknis.\r\n\nPada 10 Januari, BAFTA Views menyatakan 'sebagaimana diuraikan dalam buku aturan kami, semua film harus tersedia untuk anggota pemungutan suara di BAFTA View sebelum penutupan pemungutan ronde pertama,'\r\n\n'Hal itu untuk memastikan keadilan dan kesetaraan untuk semua judul, dan film [Spider-Man No Way Home] tidak disediakan oleh distributor,' lanjutnya.\r\n\nMenurut THR, kini Spider-Man No Way Home menjadi film pertama yang ditolak masuk BAFTA karena melanggar aturan tersebut.\r\n\nDaftar panjang film yang bisa berkompetisi di BAFTA tahun ini akan diumumkan pada Rabu (12/1).\r\n\nSpider-Man: No Way Home mengisahkan dilema yang dirasakan Peter Parker (Tom Holland) setelah ia difitnah dan identitasnya dibongkar oleh Mysterio (Jake Gyllenhaal) sebelum tewas dalam pertarungan di London.\r\n\nSampai kemudian, Peter Parker memiliki ide. Ia mendatangi Doctor Strange yang pernah sama-sama berjuang melawan Thanos. Kepada Strange, Peter meminta tolong membuat semua orang lupa bahwa dirinya adalah Spider-Man.\r\n\nKala Strange mulai merapal mantra, Peter rupanya gamang akan keputusan tersebut hingga ia membuat sang Master of the Mystic Arts kesal dan membuat kesalahan.\r\n\nKesalahan itu menyebabkan batas lintas-semesta menjadi terbuka dan menarik sejumlah pihak dari semesta lain masuk dalam semesta yang saat ini dihuni Peter dan Strange.\r\n\nKala Strange mulai merapal mantra, Peter rupanya gamang akan keputusan tersebut hingga ia membuat sang Master of the Mystic Arts kesal dan membuat kesalahan.\r\n\nKesalahan itu menyebabkan batas lintas-semesta menjadi terbuka dan menarik sejumlah pihak dari semesta lain masuk dalam semesta yang saat ini dihuni Peter dan Strange.",
            "sinopsis" : "Identitas Spider-Man sekarang sudah terungkap, dan Peter meminta bantuan Doctor Strange. namun sebuah kesalahan terjadi, dan itu justru mengundang musuh berbahaya dari dunia lain, mereka mulai bermunculan. Hal itu memaksa Peter mencari apa makna sebenarnya menjadi Spider-Man.",
            "bannerBerita":"https://akcdn.detik.net.id/visual/2021/11/17/spider-man-no-way-home-2_169.png?w=650",
            "soundtrack":"https://dl.dropbox.com/s/uclps5dyjff7sy0/Spider-Man-%20Tom%20Holland%20Soundtrack.mp3?dl=0",
            "tanggalDibuat":"12 Jan 2022"
        },
        {
            "idKategori":3,
            "judulBerita": "Sinopsis Film Gundala yang Kembali Tayang di Stasiun TV Temani Tahun Baru 2022",
            "sumberBerita": "www.liputan6.com",
            "isMovieNews":true,
            "isSerialNews":false,
            "jumlahLihat":0,
            "jumlahLike":0,
            "jumlahKomen":0,
            "pilihan":false,
            "isiBerita":"Gundala merupakan film yang dirilis di bioskop Indonesia pada 2019 silam. Kini, film tersebut dapat dinikmati karena diputar kembali di stasiun TV Indonesia.\r\n\nCerita dalam film Gundala merupakan adaptasi dari komik hasil karya Hasmi yang rilis tepat pada 29 Agustus 2019 silam.\r\n\nGundala disutradarai oleh Joko Anwar dan dibintangi Abimana Arasatya sebagai sosok tokoh utama sang superhero.\r\n\nSelain Abimana, antagonis utama dalam film ini bernama Pengkor yang diperankan oleh Bront Palarae.\r\n\nSementara itu, beberapa tokoh penting lain yang juga turut terlibat adalah Tara Basro, Ario Bayu, Rio Dewanto dan masih banyak lainnya.\r\n\nLantas, seperti apakah sinopsi film Gundala? Gundala menceritakan tentang pria bernama Sancaka yang hidup di jalanan sejak orangtua meninggalkannya.\r\n\nPengalaman pahit itu lantas membuat Sancaka jadi sosok yang sangat selfish dan cuma peduli pada dirinya sendiri, dikutip dari Kapanlagi.com.",
            "sinopsis" : "Sancaka hidup di jalanan sejak ditinggal ayah dan ibunya. Menghadapi hidup yang keras, Sancaka belajar untuk bertahan hidup dengan tidak peduli dengan orang lain dan hanya mencoba untuk mendapatkan tempat yang aman bagi dirinya sendiri. Ketika situasi kota semakin tidak aman dan ketidakadilan merajalela di seluruh negeri, Sancaka harus buat keputusan yang berat, tetap hidup di zona amannya, atau keluar sebagai Gundala untuk membela orang-orang yang ditindas.",
            "bannerBerita":"https://cdn0-production-images-kly.akamaized.net/Vj8RqvPzLNDc8LRh6MgqIa9tcf0=/0x130:694x521/1200x675/filters:quality(75):strip_icc():format(jpeg)/kly-media-production/medias/2818390/original/077712200_1559113768-D7pWQN-UEAAfDYr.jpg",
            "souundtrack":"https://dl.dropbox.com/s/lyc8k71dnpi7lip/Gundala%27s%20Theme.mp3?dl=0",
            "tanggalDibuat":"13 Jan 2022"
        },
        {
            "idKategori":2,
            "judulBerita": "'Detective Conan: The Scarlet Bullet' cetak rekor baru di Jepang",
            "sumberBerita": "www.antaranews.com",
            "isMovieNews":true,
            "isSerialNews":false,
            "jumlahLihat":0,
            "jumlahLike":0,
            "jumlahKomen":0,
            "pilihan":false,
            "isiBerita":"Setelah penundaan satu tahun, film fitur ke-24 dari franchise anime populer 'Detective Conan: The Scarlet Bullet' (judul Jepang: 'Meitantei Conan: Hiiro no Dangan') mencetak rekor baru di Jepang.\r\n\nMenurut distributor Toho, dikutip dari Crunchyroll, Selasa, film yang dirilis di 497 bioskop di Jepang -- termasuk 38 bioskop IMAX, 82 bioskop 4D, 5 bioskop DOLBY CINEMA pada 16 April 2021 itu meraih pendapatan kotor hari pertama sebesar 144 persen dari film ke-23 sebelumnya 'The Fist of Blue Sapphire', yang dirilis di 363 bioskop pada April 2019 dan menghasilkan 400 juta yen pada hari pertama.\r\n\nFilm ke-23 mengakhiri penayangan domestiknya dengan 9,37 miliar yen (86,1 juta dolar AS).\r\n\nMeskipun ada perbedaan besar dalam jumlah bioskop, jika film ke-24 dapat mempertahankan momentum awal yang kuat, film tersebut dapat menjadi film pertama yang melampaui angka 10 miliar yen dalam franchise anime berusia 25 tahun ini.\r\n\nFilm ke-24 ini semula dijadwalkan rilis di Jepang pada 17 April 2020, namun telah ditunda selama satu tahun hingga 16 April 2021, akibat dampak pandemi COVID-19.\r\n",
            "sinopsis" : "Cerita dari 'Detective Conan: The Scarlet Bullet' berlatarkan di Tokyo. Festival olahraga terbesar dunia 'WSG: World Sports Games' yang hanya berlangsung empat tahun sekali, rencananya akan segera digelar.  Dan juga diumumkan bahwa kereta 'linier superkonduktor vakum' pertama di dunia akan mulai beroperasi dari Nagoya ke Tokyo bersamaan dengan upacara pembukaannya.  Kemudian, sponsor terkemuka acara tersebut diculik di tempat pesta. Shuichi Akai sedang memantau insiden tersebut dan FBI sedang menunggu instruksi darinya. Sementara itu, Conan menemukan hubungan antara penculikan itu dan penculikan berturut-turut WSG yang keji terjadi di Boston 15 tahun lalu, yang juga diselidiki oleh FBI.",
            "bannerBerita":"https://cinemags.co.id/wp-content/uploads/2021/04/maxresdefault-2.jpg",
            "soundtrack":"https://dl.dropbox.com/s/fdmmbtdnw54fsd4/Detective%20Conan-%20The%20Scarlet%20Bullet%20Theme%20Song.mp3?dl=0",
            "tanggalDibuat" : "11 Jan 2022"
        },
        {
            "idKategori":2,
            "judulBerita": "Promo Perdana Shazam! Fury of the Gods Mengungkap Penjahat dan Aksi yang Lebih Besar",
            "sumberBerita": "www.cinemags.co.id",
            "isMovieNews":true,
            "isSerialNews":false,
            "jumlahLihat":0,
            "jumlahLike":0,
            "jumlahKomen":0,
            "pilihan":false,
            "isiBerita":"Meskipun selama ini sutradara David F. Sandberg sering berbagi informasi mengenai film Shazam! Fury of the Gods, dari kisah di belakang layar hingga beberapa “godaan” mengenai film tersebut, penggemar belum mengetahui lebih banyak mengenai film sekuel milik DC/WB tersebut. Tapi kini melalui acara virtual DC FanDome, penggemar akhirnya dapat melihat melihat sekilas mengenai Shazam 2 melalui video yang dirilis oleh pihak studio.\r\n\nPromo ini menampilkan berbagai wawancara dengan para pemeran utama film ini dan juga dengan sang sutradara. Selain itu mereka juga menampilkan dua villain utama film ini, Hespera, dan Kalypso yang diperankan oleh Hellen Mirren dan Lucy Liu. Beberapa “kehebohan” adegan dibelakang layar dan beberapa makhluk seram yang akan hadir di film tersebut juga ikut ditampilkan dalam video promo ini.\r\n\nShazam! Fury of the Gods akan menampilkan kembalinya Asher Angel dan Zachary Levi sebagai Billy Batson dan Shazam. Film ini juga akan menyoroti kembalinya Jack Dylan Grazer sebagai sahabat Billy, Freddy. Djimon Honsou juga akan kembali sebagai penyihir Shazam. Sementara itu, duo bintang baru, Helen Mirren dan Lucy Liu akan berperan sebagai putri jahat Atlas, Hespera, dan Kalypso. Baik Hespera dan Kalypso mungkin tidak begitu popular di dunia DC, tetapi kedua karakter tersebut jelas berasal dari mitologi Yunani, putri dari Atlas. Hal ini sangat relevan karena kekuatan Shazam.\r\n\nSedangkan versi “dewasa/superhero” dari keluarga angkat Billy Baston diperankan oleh Adam Brody: sebagai Freddy Freeman, Meagan Good sebagai Darla Dudley, D.J. Cotrona sebagai Pedro Peña, Grace Fulton sebagai Mary Bromfield, dan Ross Butler sebagai Eugene Choi.\r\n\nSejauh ini, Warner Bros dan New Line masih mempertahankan sebagian besar tim di depan dan di belakang kamera dari film pertamanya. Selain David F. Sandberg yang kembali duduk di kursi sutradara, Henry Gayden akan menulis skenarionya dan Petar Safran juga kembali sebagai produser.\r\n\nFYI, film Shazam! pertama tayang di bioskop pada tanggal 5 April 2019 dan meraup $364,6 juta di seluruh dunia, dengan $140,4 juta datang dari Amerika Utara dan $224,2 juta dari pasar luar negeri. Film ini adalah kisah asal yang dibintangi oleh Zachary Levi sebagai pahlawan super DC tersebut, bersama dengan Asher Angel sebagai Billy Batson, dan Mark Strong sebagai penjahat super Dr. Thaddeus Sivana.\r\n",
            "sinopsis" : "Billy Batson, seorang anak yatim berusia 14 tahun yang bermasalah yang tinggal di Philadelphia, diatur untuk pindah ke rumah asuh baru - yang ketujuh berturut-turut - dengan keluarga Vazquez dan lima anak asuh lainnya. Suatu hari, Billy naik mobil subway dan menemukan dirinya diangkut ke dunia yang berbeda di mana penyihir kuno memberinya kekuatan.",
            "bannerBerita":"https://pbs.twimg.com/media/E4adRnOXoAETEaK?format=jpg&name=large",
            "soundtrack":"https://dl.dropbox.com/s/dbab7uk7l6fesf4/SHAZAM%21%20Official%20Soundtrack%20-%20Theme%20-%20Benjamin%20Wallfisch%20-%20WaterTower%20%28128%20kbps%29.mp3?dl=0",
            "tanggalDibuat" : "13 Jan 2022"
        },
        {
            "idKategori":2,
            "judulBerita": "Wonder Woman 1984 Adalah Film Home Entertainment Terlaris di Tahun 2021",
            "sumberBerita": "www.cinemags.co.id",
            "isMovieNews":true,
            "isSerialNews":false,
            "jumlahLihat":0,
            "jumlahLike":0,
            "jumlahKomen":0,
            "pilihan":false,
            "isiBerita":"Awalnya dirilis di bioskop dan di HBO Max pada Desember 2020, Wonder Woman 1984 mendapat prestasi cukup mengejutkan dengan menghabiskan satu tahun terakhir menjadi film dengan penjualan terbanyak untuk penjualan media home entertainment di banding dengan film lainnya. Dilansir dari The Numbers, sekuel tersebut terjual 1.427.830 unit selama tahun 2021 melalui Blu-ray dan DVD, jauh di depan para persaingan. Berita ini mungkin sedikit mengejutkan bagi penggemar DC karena film ini tidak disambut dengan tangan terbuka oleh para penonton dan kritikus.\r\n\nMenyusul Wonder Woman 1984, film-film lain yang masuk sepuluh besar secara berurutan adalah The Croods: A New Age, Raya and the Last Dragon, Godzilla vs. Kong, Monster Hunter, News of the World, Soul, Harry Potter: The Complete Collection Years 1-7, John Wick: Chapter 3 - Parabellum, dan Tenet.\r\n\nPerkiraan penjualan DVD dan Blu-ray tersebut didasarkan pada survei ritel mingguan, yang digunakan untuk membuat perkiraan pangsa pasar mingguan untuk setiap judul yang dilacak oleh pihak terkait. Pangsa pasar diubah menjadi perkiraan penjualan mingguan berdasarkan laporan industri tentang ukuran pasar secara keseluruhan, termasuk laporan yang dipublikasikan di Media Play News.\r\n\nMenjadi sekuel film Wonder Woman yang rilis di tahun 2017, Wonder Woman 1984 menghadirkan kembali bintang Gal Gadot dan sutradara Patty Jenkins. Geoff Johns, Dave Callaham, dan Jenkins menulis naskahnya. Selain Gal Gadot, film ini juga dibintangi oleh Chris Pine, Kristen Wiig, Pedro Pascal, Robin Wright, dan Connie Nielsen. Dengan setting selama Perang Dingin, sekuel ini mengikuti petualangan Diana dan cinta masa lalunya Steve Trevor yang berhadapan dan Maxwell Lord dan Cheetah. Sulit untuk secara akurat menilai seberapa sukses film itu secara finansial karena memiliki rilis hari-dan-tanggal selama pandemi, tetapi 'prestasi' itu cukup untuk menebus kekecewaan Warner Bros. dengan penjualan home entertainment.\r\n\nSedangkan untuk film ketiganya, pihak studio telah mengkonfirmasi hal tersebut. Dan baru-baru ini, Gal Gadot mengkonfirmasi bahwa sekuelnya sedang dalam pengembangan dengan skenario yang sekarang sedang ditulis. Namun penggemar jangan berharap untuk dapat menonton film ini dalam waktu dekat karena Gadot juga mengatakan syuting mungkin baru akan dimulai dalam waktu satu setengah tahun lagi.\r\n",
            "sinopsis" : "Berlatar setting tahun 1980-an, petualangan Wonder Woman selanjutnya adalah menghadapi dua musuh baru: Max Lord dan The Cheetah.",
            "bannerBerita":"https://media.newyorker.com/photos/5fe2124f9fabedf20ec1f86b/master/pass/Lepore-WW1984.jpg",
            "soundtrack":"https://dl.dropbox.com/s/85iyl1gnwkfbofl/Wonder%20Woman%201984%20OST%20-%20Wonder%20Woman%20Theme.mp3?dl=0",
            "tanggalDibuat" : "14 Jan 2022"
        },
        {
            "idKategori":2,
            "judulBerita": "Bersiaplah, Netflix akan Hadirkan Dua Sekuel Red Notice Sekaligus",
            "sumberBerita": "www.cinemags.co.id",
            "isMovieNews":true,
            "isSerialNews":false,
            "jumlahLihat":0,
            "jumlahLike":0,
            "jumlahKomen":0,
            "pilihan":true,
            "isiBerita":"Netflix ternyata memperhatikan kesuksesan besar dari Red Notice dan sekarang sepertinya streamer raksasa tersebut menginginkan lebih banyak lagi kisah lanjutan dari film itu.  Sebuah laporan dari Deadline mengungkap bahwa mereka sedang mempersiapkan dua sekuel yang akan diproduksi secara back to back sekitar tahun 2023 mendatang.  Meskipun demikian, jadwal ini akan didasarkan pada kesepakatan dan ketersediaan jadwal dari bintang-bintangnya.\r\n\nPenulis-sutradara film pertama, Rawson Marshall Thurber dikabarkan telah mulai menulis naskah untuk film baru tersebut, dan rencananya mereka akan membawa kembali tiga bintang utama dari film pertama: Dwayne Johnson, Gal Gadot, dan Ryan Reynolds. Netflix juga dilaporkan berharap untuk menambahkan karakter baru untuk lebih menyempurnakan kedua sekuel tersebut dengan menghadirkan deretam pemeran yang mengesankan seperti di Oceans Eleven. Beau Flynn akan bertugas kembali sebagai produser bersama dengan Dwayne Johnson, Hiram Garcia, dan Dany Garcia.\r\n\nJangan salah, ini adalah pertaruhan besar bagi Netflix untuk memilih memproduksi sekuel sebagai satu paket: ini menyiratkan banyak kepercayaan pada potensi franchise Red Notice, kekuatan dari para bintangnya, dan kepercayaan nyata pada visi kreatif Thurber. Hanya waktu yang akan memberi tahu, bagaimana mereka dapat menghadirkan hiburan dan kisah yang lebih heboh lagi dari film pertamanya.\r\n\nRed Notice mengikuti agen Interpol yang bermitra dengan pencuri seni paling dicari di dunia untuk menangkap penjahat yang sulit ditangkap. Film ini adalah sebuah proyek pertaruhan luar biasa bagi Netflix karena anggaran produksinya mencapai $200 juta, termasuk untuk mengaji para bintang utamanya. Jika film itu gagal total, itu akan menjadi pukulan besar bagi Netflix, namun ternyata hal tersebut tidak terjadi. Sekarang mereka jauh lebih percaya diri dalam prospek lebih banyak film Red Notice, mereka menggandakan investasi dengan syuting dua film sekaligus, dan dengan menambahkan anggota pemeran baru dengan nama besar, proyek itu bisa menjadi lebih mahal untuk diproduksi.\r\n\nSeperti kita ketahui, setelah dirilis di Netflix, Red Notice memecahkannya beberapa rekor dan melewati Bird Box untuk menjadi film yang paling banyak ditonton di layanan streaming tersebut. Bahkan berita tersebut dirayakan oleh Dwayne Johnson di akun Instagram pribadinya. Ya, sejak dirilis, film ini telah menjadi film Netflix yang paling banyak ditonton dengan lebih dari 200 juta jam streaming selama 28 hari pertama.\r\n",
            "sinopsis" : "Interpol mengeluarkan surat perintah yang ditujukan pada John Hartley untuk menangkap Sarah Black, buronan paling dicari seluruh dunia. Sarah baru saja mencuri sebuah lukisan hasil karya seni temahal di dunia.",
            "bannerBerita":"https://thumbor.forbes.com/thumbor/960x0/https%3A%2F%2Fspecials-images.forbesimg.com%2Fimageserve%2F61913ad72d1a29a2ab047634%2FDwayne-Johnson--Gal-Gadot-and-Ryan-Reynolds-in--Red-Notice--on-Netflix%2F960x0.jpg%3FcropX1%3D0%26cropX2%3D1500%26cropY1%3D158%26cropY2%3D1002",
            "soundtrack":"https://dl.dropbox.com/s/o6g0q04f9l5g0ne/Red%20Notice%20%28Soundtrack%20from%20the%20Netflix%20Film%29%20%28128%20kbps%29.mp3?dl=0",
            "tanggalDibuat" : "10 Jan 2022"
        },
        {
            "idKategori":2,
            "judulBerita": "Film The Flash Diduga Bakal Hapus Batman dan Superman, Ezra Miller Beri Penjelasan",
            "sumberBerita": "www.liputan6.com",
            "isMovieNews":true,
            "isSerialNews":false,
            "jumlahLihat":0,
            "jumlahLike":0,
            "jumlahKomen":0,
            "pilihan":false,
            "isiBerita":"Film The Flash terbaru garapan sutradara Andy Muschietti ditimpa rumor tak sedap di mata penggemar film superhero DC. Isu yang beredar, The Flash diduga bakal jadi sarana Warner Bros untuk mendaur ulang waralaba DC Extended Universe (DCEU).\r\n\nRumornya, film yang dibintangi Ezra Miller itu akan mengusung konsep reset alias mengatur ulang semestanya. Caranya dengan menghapus seluruh cerita serta karakter Batman dan Superman dari film-film karya Zack Snyder: Man of Steel, Batman v Superman, dan Zack Snyder's Justice League.\r\n\nMenguaknya rumor tersebut di dunia maya, membuat sejumlah penggemar marah besar. Bahkan, sampai ada yang berikrar untuk tak menonton film-film DCEU. Hingga akhirnya, Ezra Miller menanggapi isu tersebut.\r\n\nA. Tanggapan Sang Aktor\r\n\nMelansir dari cbr.com, belum lama ini, Ezra Miller menyiratkan bahwa kekuatan karakternya, The Flash, dalam film mendatang, tak akan dibuat sebesar itu.'Tak ada kekuatan atau tenaga di megaverse mana pun yang diketahui akan atau bisa menghapus karya Zack Snyder yang perkasa,' ujarnya dalam sebuah pernyataan yang mencuat di situs Reddit.\r\n\nB. Memikirkan yang Terlupakan\r\n\nKamu dapat mengutip itu. Membawanya ke bank, ke pers, ke sekolah, ke militer, dan pilar kapitalisme lainnya. Saya lupa penyebab hal itu di mana kamu mencoba untuk memikirkan sekelompok hal yang salah satunya selalu kamu lupakan,' sambungnya.\r\n\nC. Rumor Digantinya Batman dan Superman\r\n\nKehadiran Supergirl di film The Flash dan diumumkannya film Batgirl, sempat membuat sejumlah penggemar meyakini Superman dan Batman akan diganti oleh dua karakter tersebut.\r\n\nTerlebih lagi, kisah-kisah The Flash selalu erat kaitannya dengan konsep multiverse seperti yang beberapa kali digambarkan dalam serial televisi di saluran CW.\r\n\nD. Batman dan Superman\r\n\nAktor Henry Cavill yang memerankan Superman, hingga kini belum jelas kapan akan muncul lagi sebagai superhero tersebut. Namun, Ben Affleck dipastikan akan tampil kembali sebagai Batman dalam film ini.\r\n\nSelain Ben Affleck, Michael Keaton yang berperan sebagai Batman dalam film tahun 1989 dan 1992, juga akan kembali sebagai karakter tersebut yang berasal dari semesta lain.\r\n\nBelum jelas apakah film yang siap tayang 4 November 2022 ini akan menggunakan racikan ala Spider-Man: No Way Home ataukah dibuat dengan konsep tak terduga yang sanggup mengejutkan penonton.\r\n",
            "sinopsis" : "The Flash adalah film adiwira Amerika Serikat mendatang yang didasarkan dari watak DC Comics bernama sama. Film ini diproduksi oleh DC Films, The Disco Factory, dan Double Dream, serta didistribusikan oleh Warner Bros. Pictures, film ini diniatkan sebagai film ke-12 DC Extended Universe.",
            "bannerBerita":"https://www.newscinema.it/wp-content/uploads/2018/10/the-flash-3840x2160-justice-league-hd-2017-6892.jpg",
            "soundtrack":"https://dl.dropbox.com/s/yrcdytkunwoaf8b/The%20Flash%20-%20Zack%20Snyder%27s%20Justice%20League-%20The%20Flash%20Theme%20-%20EPIC%20CINEMATIC%20VERSION%20%28At%20The%20Speed%20of%20Force%29%20%28128%20kbps%29.mp3?dl=0",
            "tanggalDibuat" : "11 Jan 2022"
        },
        {
            "idKategori":3,
            "judulBerita": "Yowis Ben Finale tayang menutup kisah tetralogi film Yowis Ben",
            "sumberBerita": "www.cinemags.co.id",
            "isMovieNews":true,
            "isSerialNews":false,
            "jumlahLihat":0,
            "jumlahLike":0,
            "jumlahKomen":0,
            "pilihan":false,
            "isiBerita":"Membahas mengenai Yowis Ben Finale , tentunya tak terlepas dari film Yowis Ben yang tayang pertama kali tahun 2018 dan mendapat sambutan luar biasa.\r\n\nSemenjak itu franchise film ini berkembang meluas dan menghasilkan pula film lanjutannya, dan menciptakan dunianya sendiri yang selalu dinanti-nanti oleh penontonnya.\r\n\nKali ini film Yowis Ben Finale, akan memberikan sesuatu yang berbeda bagi para penontonnya dengan menghadirkan kisah yang tak terlupakan dari empat karakter Bayu, Yayan, Nando dan Doni.\r\n\nDalam kesempatan khusus kepada media, produser Chand Parwez Servia , menyampaikan bahwa pembuatan film ini telah melewati perjuangan dalam masa pandemi dengan adanya proses lockdown dan lain-lain terkait.  Namun hal ini justru membuat film ini memiliki romantisme khusus dan harus segera disampaikan kepada penontonnya. Harapannya pun terwujud dengan saat penayangan screening maupun gala premiere , ada tampilan bandnya pula hadir menghibur para penonton. Lagu-lagu para personil memang sangat digemari sekali di spotify.\r\n\nHarapannya adalah untuk mendekatkan para penonton dengan filmnya, para penonton dengan castnya serta para penonton dengan para bandnya.\r\n\nFilm Yowis Ben ini merupakan perayaan dari Starvision , berkenaan pula dengan kolaborasi barunya dan nantinya akan diikuti dengan film-film lainnya hingga Januari 2022\r\n",
            "sinopsis" : "Diceritakan Bayu tengah mengalami masalah dengan Cak Jon akibat salah paham. Di sisi lain, Bayu juga mengalami masalah dengan Asih, pacar baru Bayu.",
            "bannerBerita":"https://i.ytimg.com/vi/mzQQBJjF-U8/maxresdefault.jpg",
            "soundtrack":"https://dl.dropbox.com/s/9dgq466ohr6eglv/Yowis%20Ben%20-%20Lagu%20Galau%20%28Official%20Music%20Video%29.mp3?dl=0",
            "tanggalDibuat" : "11 Jan 2022"
        },
        {
            "idKategori":3,
            "judulBerita": "5 Fakta Layangan Putus: Adegan Viral Jadi Yang Tersulit, Cetak Rekor 15 Juta Penayangan",
            "sumberBerita": "www.suara.com",
            "isMovieNews":false,
            "isSerialNews":true,
            "jumlahLihat":0,
            "jumlahLike":0,
            "jumlahKomen":0,
            "pilihan":false,
            "isiBerita":"Serial Layangan Putus masih menjadi salah satu tayangan yang ditunggu-tunggu penonton. Terakhir, Layangan Putus mencatat rekor baru sebagai serial yang ditonton 15 juta kali sehari. Drama Indonesia yang dibintangi Putri Marino, Reza Rahadian, dan Anya Geraldine ini mengisahkan sebuah cerita rumah tangga yang hancur karena perselingkuhan. Selain jalan cerita yang begitu melekat di kehidupan sehari-hari penonton, beberapa adegan pun sempat viral karena begitu berkesan. \r\n\n1. Adegan Paling Sulit\r\n\nSiapa sangka jika viralny adegan `my dream, not hers` adalah adegan yang paling sulit bagi Putri Marino yang memerankan tokoh Kinan. `Sebenarnya semua adegan itu menantang. Tapi yan, `it`s my dream not hers` itu salah satu terberat. Udah gitu grammar-nya kan salah. Aku nyebutnya `her`, seharusnya `hers`,` kata Putri Marino, saat live Instagram bersama Reza Rahadian, Senin (10/1/2022). \r\n\n2. Cappadocia jadi semakin populer\r\n\nSebuah tempat di Turki bernama Cappadocia menjadi salah satu yang paling sering disebut di drama ini. Cappadocia yang identik dengan pemandangan gurun dan balon udara itu ternyata adalah tempat impian Kinan. Sayangnya, Aris sang suami justru mengajak Lidya sang selingkuhan mengunjungi tempat itu. Dari sinilah asal mula adegan debat `my dream, not hers`.\r\n\n3. Anya Geraldine mimpi dihujat penonton\r\n\nBerkat perannya sebagai Lidya, Anya Geraldine jadi bahan pembicaraan banyak orang. Anya telah sukses membolak-balikkan emosi penonton dengan karakter antagonisnya sebagai selingkuhan Aris. Anya Geraldine pun mengaku sampai mimpi dibenci publik nyata gara-gara peran tersebut.\r\n\n4. Koreografi adegan ranjang\r\n\nReza Rahadian bongkar rahasia adegan ranjang di serial Layangan Putus saat berbincang di YouTube Boy William, pada Minggu 7 Januari 2022. Di serial tersebut Reza harus beradegan ranjang dengan lawan mainnya. Kata dia, setiap adegan ranjang, ada trik dan koreografinya. \r\n\n`Semua itu koreografi. Misalnya ada kissing scene, spotnya mulai dari pintu ke tempat tidur, semua dikoreografi,` kata dia. \r\n\n`Termasuk misalnya jika ada adegan buka baju. Enggak ada yang buka beneran. Ada yang pakai kemben, kain atau apa,` imbuhnya. \r\n\n5. Terinspirasi dari kisah Mommy ASF\r\n\nSerial ini dibuat dengan mengadaptasi sebuah tulisan karya Mommy ASF pada tahun 2019 silam yang mencurahkan kisah rumah tangganya di Facebook. Dalam tulisan tersebut, mommy ASF diketahui menikah dengan Ricky Zainal. Namun pernikahan itu kandas tak lama setelah kehadiran orang ketiga yang disebut-sebut merupakan selebgram Lola Diara.\r\n\nItulah beberapa fakta Layangan Putus yang membuat para pemainnya mendapat sanjungan atas peran mereka.",
            "sinopsis" : "Serial Layangan Putus masih menjadi salah saty tayangan yang ditunggu-tunggu penonton. Terakhir, Layangan Putus mencatat rekor baru sebagai serial yang ditonton 15 juta kali sehari. Simak fakta-fakta Layangan Putus berikut.",
            "bannerBerita":"https://media.suara.com/pictures/653x366/2021/11/29/76706-serial-layangan-putus.webp",
            "soundtrack":"https://dl.dropbox.com/s/fx560wva3rxm8u5/01.%20Prinsa%20Mandagie%20-%20Sahabat%20Dulu%20%28Official%20Audio%29%20_%20OST.%20Layangan%20Putus%20%28128%20kbps%29.mp3?dl=0",
            "tanggalDibuat":"14 Januari 2022"
        },
        {
            "idKategori":3,
            "judulBerita": "Erisca Febriani Akan Tulis Cerita Karakter Lain Dari Semesta Dear Nathan",
            "sumberBerita": "www.hot.detik.com",
            "isMovieNews":false,
            "isSerialNews":true,
            "jumlahLihat":0,
            "jumlahLike":0,
            "jumlahKomen":0,
            "pilihan":false,
            "isiBerita":"Novelis Erisca Febriani menegaskan tidak akan melanjutkan cerita karakter Nathan dan Salma. Kedua pemeran utama sudah selesai kisahnya dalam novel dan film triologi yang menjadi penutup di Dear Nathan: Thank You Salma.\r\n\n`Kalau dilanjutin lagi nggak bisa, karakter lain mungkin bisa. Ada beberapa tokoh yang masih bisa spin-off,` tutur Erisca Febriani ketika diwawancarai detikcom, belum lama ini. Perempuan asal Lmpung itu menuturkan sedang mengembangkan karakter-karakter lain dalam semesta Dear Nathan. Ada webseri Kisah untuk Geri yang menjadi spin-off Dear Nathan. Dia pun melanjutkan, `Kehidupan terbalik ini akhirnya menimbulkan simpati dari pembaca.` \r\n\n Cerita menantang ini, lanjut dia, akhirnya terlintas untuk bisa menggarap spin-off yang banyak banget bisa dituliskan. \r\n\n`Aku juga ingin jadikan IP. Setiap karakter bahkan pendukung bisa jadi impact yang besar banget dalam semesta Nathan dan Salma,` tegasnya. \r\n\nSebelumnya, akhir tahun lalu Erisca juga menuliskan prekuel Dear Nathan yang berjudul Goodbye Daniel. Dalam Dear Nathan tidak dijelaskan kenapa punya hubungan buruk dengan orang tuanya.\r\n\n`Aku jelaskan dengan detail dan bahas soal parenting orang tua juga, luka yang diturunkan oleh orang tua akan berpengaruh dengan proses tumbuh kembang anak,` lanjutnya. Ibunda Melly tidak punya kesempatan untuk menggapai cita-citanya dan harapan itu ditaruh kepada Daniel yang punya prestasi akademik.\r\n\nDi satu sisi, Nathan merasa ibundanya pilih kasih dan hal itu membuat Nathan kesepian. Dia pun bersikap nakal agar menarik perhatian orang tuanya.\r\n\nKarya itu rilis pada Desember 2021 dan mendapat apresiasi yang bagus dari pembaca Erisca Febriani. Lalu apa pesannya bagi pembaca yang nantinya menonton film penutup seri Dear Nathan?\r\n\n`Jangan lupa nonton 13 Januari nanti, menurutku ini film yang terbaik sih karena terlihat jelas pengembangan karakternya. Sinematografinya, ada kedewasaan antara Nathan dan Salma, ini jadi penutup yang lengkap dari kisah Nathan dan Salma,` pungkasnya.",
            "sinopsis" : "Novelis Erisca Febriani menegaskan tidak akan melanjutkan cerita karakter Nathan dan Salma. Kedua pemeran utama sudah selesai kisahnya dalam novel dan film triologi yang menjadi penutup di Dear Nathan: Thank You Salma.",
            "bannerBerita":"https://awsimages.detik.net.id/community/media/visual/2022/01/11/erisca-febriani-1_43.jpeg?w=1200",
            "soundtrack":"https://dl.dropbox.com/s/93nxnl6c9mtfnaa/02.%20Teman%20Perjalanan%20%28Dear%20Nathan%2C%20Thank%20You%20Salma%20-%20Original%20Motion%20Picture%20Soundtrack%29%20%28128%20kbps%29.mp3?dl=0",
            "tanggalDibuat":"14 Januari 2022"
        },
        {
            "idKategori":3,
            "judulBerita": "Taste Of Friendship, Web Series Indonesia Rasa Korea, Penasaran?",
            "sumberBerita": "nova.grid.id",
            "isMovieNews":false,
            "isSerialNews":true,
            "jumlahLihat":0,
            "jumlahLike":0,
            "jumlahKomen":0,
            "pilihan":true,
            "isiBerita":"Tahun 2021, fenomena tren Korea masih menjadi primadona dikalangan masyarakat Indonesia khususnya milenial. Mulai dari produk kecantikan, mode, drama Korea, makanan dan minuman telah menjadi pilihan gaya hidup yang sangat lekat dengan mereka. Melihat besarnya animo tersebut, perusahaan farmasi Dong-A ST (dengan anak perusahaan minuman Dong-A Otsuka) asal Korea Selatan, lewat produk minuman terbarunya yaitu Olatte, berusaha menghadirkan sajian tren Korea dengan memadukan nuansa Indonesia ke dalam tayangan web drama series dengan judul Taste of Friendship.\r\n\nWeb series garapan sutradara Titis Sapto Raharjo ini, berlatarkan kisah persahabatan dan cinta dalam kampus, dengan kehidupan sehari-hari mereka yang lovely dan cool dikemas secara natural ke dalam drama. Tayangan hiburan yang mengusung tren Korea-Indonesia, Taste of Friendship, dapat disaksikan melalui platform Youtube Olatte Indonesia.\r\n\nMenghadirkan aktris dan aktor muda Indonesia, seperti Ranty Maria, Chicco Kurniawan, dan Tubagus Ali, Taste of Friendship disambut baik masyarakat Indonesia dimana sejak awal penayangannya, series ini hingga episode 4 yang tayang telah mencapai total dua puluh juta views.\r\n\nSejak penayangan teaser pertama. Kesan fresh dan premium dengan Korean Style, menjadi daya tarik Taste of Friendship yang memikat. Menurut Departmen Marketing Olatte, tren Korea saat ini menjadi salah satu pilihan gaya hidup dari milenial. Mulai dari makanan, minuman hingga drama Korea. Kolaborasi antar dua kebudayaan ini yang pada akhirnya akan menciptakan tren baru. Tren seperti ini dicerminkan juga pada siaran-siaran di Indonesia.\r\n\n`Banyak orang Indonesia mencintai Drama Korea. Selain karena K-style, pesan dan cerita yang disampaikan dalam drama Korea memiliki tempat tersendiri di hati masyarakat Indonesia,` ujar Hongsuk Shim, Marketing Manager Olatte.\r\n\nDi Korea, Olatte adalah minuman populer dengan rasa serta nutrisi yang telah di akui hingga disajikan dengan makanan di sekolah-sekolah generasi MZ. Selain kisah pertemanan Ranty dan teman-temannya, Taste of Friendship menceritakan usaha Ranty dalam menunjukkan rasa sukanya kepada teman sekelasnya yaitu Baskara.\r\n\nUsaha Ranty untuk semakin dekat dengan Baskara didukung penuh oleh teman-teman gengnya. Kisah kasih di masa kuliah dihadirkan Taste of Friendship dengan apik.",
            "sinopsis" : "Menghadirkan aktris dan aktor muda Indonesia, seperti Ranty Maria, Chicco Kurniawan, dan Tubagus Ali, Taste of Friendship disambut baik masyarakat Indonesia dimana sejak awal penayangannya, series ini hingga episode 4 yang tayang telah mencapai total dua puluh juta views.",
            "bannerBerita":"https://asset-a.grid.id/crop/0x0:0x0/x/photo/2021/04/21/tastejpg-20210421032054.jpg",
            "soundtrack":"https://dl.dropbox.com/s/0xts9s8jaky07f6/03.%20Taste%20of%20Friendship%20EP%201%20_%20Cara%20Ranty%20Ungkapin%20Hati%20%28128%20kbps%29.mp3?dl=0",
            "tanggalDibuat":"14 Januari 2022"
        },
        {
            "idKategori":2,
            "judulBerita": "Rilis Trailer Baru, Ini Fakta Menarik Tentang Stranger Things Season 4",
            "sumberBerita": "www.kompas.com",
            "isMovieNews":false,
            "isSerialNews":true,
            "jumlahLihat":0,
            "jumlahLike":0,
            "jumlahKomen":0,
            "pilihan":true,
            "isiBerita":"Stranger Things menjadi salah satu serial Netflix Original yang paling banyak ditonton di seluruh dunia.\r\n\nKabar menggembirakan datang untuk fans Eleven, Jim Hopper, dan Mike Wheeler yang sudah menantikan kelanjutan kisah mereka selama satu tahun belakangan. Pada Kamis (6/7/2021), Netflix resmi merilis trailer kedua dari serial fiksi ilmiah besutan The Duffer Brothers tersebut.\r\n\nDalam video berdurasi 1:09 detik ini, penonton dibawa ke sebuah ruangan di Hawkins National Laboratory yang sempat menjadi rumah bagi Eleven (Millie Bobby Brown). Ruangan yang dikenal dengan nama `Rainbow Room` tersebut difungsikan sebagai tempat berkumpulnya anak-anak yang memiliki keistimewaan seperti Eleven. Sementara itu di sel nomor 11, Eleven nampak terkejut saat Dr. Martin Brenner (Matthew Modine) datang menghampirinya.\r\n\nSembari menantikan pernyataan resmi soal tanggal perilisan Stranger Things season 4, berikut fakta menarik yang mungkin perlu Anda ketahui tentang serial ini:\r\n\n1. Nasib Jim Hopper\r\n\nDi episode terakhir season 3, Joyce Byers (Winona Ryder) terpaksa menutup gerbang menuju Upside Down sebelum Jim Hopper (David Harbour) berhasil menyelamatkan diri. Hal ini mengakibatkan Hopper terjebak dalam dunia yang sangat berbahaya bagi manusia. Joyce pun meyakini ia telah tewas.\r\n\nNamun dalam trailer yang dirilis Netflix pada Februari 2020 silam, Hopper terlihat berada di sebuah tempat yang nampak seperti kamp tahanan. Spekulasi mengenai nasib Jim Hopper pun bermunculan. Banyak yang menduga jika sang Sheriff sengaja dipindahkan ke Kamchatka, Rusia oleh seseorang.\r\n\n2. Hadirnya tiga karakter baru\r\n\nPeter Ballard (Jamie Campbell Bower), Argyle (Eduardo Franco), dan Eddie Munson (Joseph Quinn) menjadi tiga karakter baru dalam Stranger Things. Mereka akan memegang peranan penting dalam kehidupan sejumlah karakter, sekaligus untuk jalan cerita di musim ini.\r\n\nJamie Campbell berperan sebagai Peter, petugas di Pennhurst Mental Hospital yang menjadi kunci dari sebuah peristiwa penting. Sementara itu, Argyle dan Eddie Munson juga menjadi bagian penting di kehidupan Jonathan Byers serta para penggila Dungeon and Dragons.\r\n\n3. Cerita tak lagi berpusat di Hawkins\r\n\nSejak perilisan teaser pertamanya pada 2019, banyak pihak yang berspekulasi soal latar tempat dalam musim keempat Stranger Things. Pasalnya dalam video berdurasi 45 detik tersebut, terdapat tagline yang menyebutkan mereka tidak lagi berada di Hawkins.\r\n\nHal ini pun diperkuat dengan pernyataan Matt Duffer pada awak media beberapa bulan setelah teaser dirilis. Matt mengungkap salah satu plot dari season 4 ialah berpindahnya konflik ke luar Hawkins, Indiana.\r\n\n4. Kisahnya akan lebih kelam\r\n\nBersamaan dengan dirilisnya teaser pertama pada 2019 silam, The Duffer Brothers mengungkap beberapa poin penting tentang musim ini. Selain kembalinya Jim Hopper, keduanya menyatakan jika kisah dalam musim keempat Stranger Things akan jauh lebih kelam.\r\n\nMatt dan Ross Duffer juga mengisyaratkan jika penonton akan melihat bagaimana peristiwa terjadi di Hawkins saling berkaitan.\r\n\nItu dia fakta menarik Stranger Things season 4 yang perlu Anda tahu.",
            "sinopsis" : "Kabar menggembirakan datang untuk fans Eleven, Jim Hopper, dan Mike Wheeler yang sudah menantikan kelanjutan kisah mereka selama satu tahun belakangan.",
            "bannerBerita":"https://asset.kompas.com/crops/vW7OagiOk_cmTFHvlvQORpNPYhw=/47x52:1316x898/750x500/data/photo/2021/05/07/6094f59e6978d.png",
            "soundtrack":"https://dl.dropbox.com/s/vu7wjjx5rlp1hlf/04.%20Stranger%20Things%204%20Trailer%20Music%20%28128%20kbps%29.mp3?dl=0",
            "tanggalDibuat":"14 Januari 2022"
        },
        {
            "idKategori":2,
            "judulBerita": "Superhero John Cena 'Peacemaker' Tayang 13 Januari",
            "sumberBerita": "republika.co.id",
            "isMovieNews":false,
            "isSerialNews":true,
            "jumlahLihat":0,
            "jumlahLike":0,
            "jumlahKomen":0,
            "pilihan":true,
            "isiBerita":"Kisah mendalam tentang sosok Peacemaker dari DC Comics akhirnya hadir bagi penggemar, lewat serial berjudul sama. Dibintangi aktor John Cena, serial tayang di HBO GO mulai 13 Januari 2022, dikutip dari keterangan resmi HBO GO, Selasa (11/1/2022).\r\n\n`Peacemaker` menggali asal mula karakter yang pertama kali tampil di layar lewat film The Suicide Squad arahan James Gunn yang rilis pada 2021. Sang sineas juga yang kini menyutradarai dan menulis skenario serial \r\n\nTokoh Peacemaker adalah sosok pria arogan yang selalu ingin mewujudkan kedamaian. Dia hendak mencapainya dengan cara apapun, tak peduli berapa orang yang harus dia bunuh untuk meraihnya.\r\n\nDi dunia buku komik, Peacemaker pertama kali muncul di Fightin` 5 edisi #40 (November 1966), diciptakan bersama oleh Joe Gill dan Pat Boyette. Sebelum diakuisisi DC Comics, karakter dimiliki oleh Charlton Comics.\r\n\nJames Gunn menulis seluruh episode serial `Peacemaker` dan menyutradarai lima dari total delapan episode. Gunn, Peter Safran, dan Matt Miller menjadi produser eksekutif, sementara Cena sebagai ko-produser eksekutif.\r\n\nSerial diproduksi oleh Troll Court Entertainment milik James Gunn, The Safran Company, dan Warner Bros Television. Selain John Cena, serial ini juga dibintangi deretan pemeran lain.\r\n\nDanielle Brooks memerankan Adebayo, Freddie Stroma berperan sebagai Vigilante, dan Jennifer Holland sebagai Harcourt. Hadir pula Steve Agee sebagai Economos, Chukwudi Iwuji sebagai Murn, dan Robert Patrick sebagai Auggie Smith.",
            "sinopsis" : "Kisah mendalam tentang sosok Peacemaker dari DC Comics akhirnya hadir bagi penggemar, lewat serial berjudul sama. Dibintangi aktor John Cena, serial tayang di HBO GO mulai 13 Januari 2022",
            "bannerBerita":"https://static.republika.co.id/uploads/images/inpicture_slide/_220111142214-409.jpg",
            "soundtrack":"https://dl.dropbox.com/s/npjmgwz4dpvctmy/05.%20Peacemaker%20Trailer_Opening%20Song%20_%20OST%20%28192%20kbps%29.mp3?dl=0",
            "tanggalDibuat":"14 Januari 2022"
        },
        {
            "idKategori":2,
            "judulBerita": "Archive 81, Menguak Kerangka Rekaman Mengerikan",
            "sumberBerita": "kompas.com",
            "isMovieNews":false,
            "isSerialNews":true,
            "jumlahLihat":0,
            "jumlahLike":0,
            "jumlahKomen":0,
            "pilihan":false,
            "isiBerita":"Serial horor-slow burn bertajuk Archive 81 resmi tayang di Netflix mulai Jumat (14/1/2022).\r\n\nArchive 81 merupakan serial delapan episode yang ditulis oleh Paul Harris Boardman dengan kolaborasi bersama produser Sonnenshine, Boardman, serta James Wan. Serial ini dibintangi aktris dan aktor berbakat Amerika seperti Mamoudou Athie, Dina Shihabi, Martin Donovan, Matt McGorry, Julia Chan, Evan Jonigkeit, dan Ariana Neal.\r\n\nArchive 81 merupakan serial dengan konsep menggunakan kerangka rekaman yang telah ditemukan. Kerangka rekaman ini digunakan untuk menyelami kisah mengerikan dengan timeline berbeda, tapi saling terhubung satu-sama lain. Kisahnya mengikuti tokoh bernama Dan Turner (Mamoudou Athie), seorang pengarsip video.\r\n\nIa disewa oleh seorang jutawan misterius untuk memulihkan beberapa kaset VHS yang baru ditemukan. Dalam Archive 81, kaset tersebut difilmkan oleh mahasiswa Universitas New York bernama Melody Pendras (Dina Shihabi) pada 1990-an silam.\r\n\nRekaman itu berisi kehidupan Melody saat tinggal di The Visser, sebuah kompleks apartemen yang kemudian terbakar hingga membuat semua penghuninya meninggal dunia.\r\n\nPada era 1990-an, Melody pindah ke The Visser dan menyadari bahwa sebagian besar tetangganya sangat misterius dan saling bermusuhan. Melody mengklaim bahwa ia ada di sana untuk proyek penelitian berbasis komunitas, tetapi sebenarnya ia sedang mencari ibu kandungnya yang meninggalkan Melody saat masih bayi. Dalam proses memperbaiki kaset, Dan mengungkap fakta seram tentang bangunan yang memiliki kaitan misteri dengan masa lalunya sendiri.\r\n\nAkankah Dan mampu memecahkan misteri dari rekaman kaset tersebut? Apakah misteri dari rekaman milik Melody memiliki hubungan dengan masa lalunya? Tonton kisah serunya hanya dalam serial Archive 81 yang dapat Anda saksikan mulai Jumat (14/1/2022) di Netflix.",
            "sinopsis" : "Akankah Dan mampu memecahkan misteri dari rekaman kaset tersebut? Apakah misteri dari rekaman milik Melody memiliki hubungan dengan masa lalunya?",
            "bannerBerita":"https://asset.kompas.com/crops/hpQMsMHnp98bKV31vSyDryNgepk=/0x154:1078x873/750x500/data/photo/2022/01/14/61e0cf2d07452.jpg",
            "soundtrack":"https://dl.dropbox.com/s/t8dm1ocdppnle18/06.%20Ben%20Salisbury%20%26%20Geoff%20Barrow%20-%20Journey%20To%20The%20Compound%20-%20Netflix%27s%20Archive%2081%20OST%20%28128%20kbps%29.mp3?dl=0",
            "tanggalDibuat":"14 Januari 2022"
        },
        {
            "idKategori":1,
            "judulBerita": "`Tracer` Sukses Dapatkan Rating Tertinggi Usai Rilis Episode Perdana",
            "sumberBerita": "priangantimurnews.com",
            "isMovieNews":false,
            "isSerialNews":true,
            "jumlahLihat":0,
            "jumlahLike":0,
            "jumlahKomen":0,
            "pilihan":false,
            "isiBerita":"Serial asli MBC yang baru tayang perdana `Tracer` dimulai dengan awal yang baik, mencetak rating pemirsa tertinggi di antara acara prime-time Jumat, 7 Januari 2022.\r\n\nAcara tersebut, yang diproduksi bekerja sama dengan platform streaming KBS, SBS, dan SK Telecom Wavve, memperoleh peringkat 7,4 persen secara nasional untuk episode perdananya, melampaui peringkat 6,8 persen untuk serial roman SBS `Now, We Are Breaking Up` dan 3,5 persen. untuk serial aksi kejahatan tvN `Bad and Crazy.`\r\n\nSebagaimana dilansir priangantimurnews.com dari Koreatimes, Serial ini Disutradarai oleh Lee Seung-young, yang memimpin film thriller kriminal hit `Missing Noir M` (2015) dan `Voice 2` (2018), seri aksi ini mengikuti kisah pejabat di Layanan Pajak Nasional.\r\n\nSebagai manajer tim divisi 5 perpajakan yang baru diangkat, yang dianggap sebagai kambing hitam dinas, Dong-ju bergandengan tangan dengan kepala divisi Oh Young (Park Yong-woo) dan Seo Hey-young (Ko Ah-sung) untuk memburu para penghindar pajak.\r\n\n`Serial ini mengikuti sekelompok karakter unik yang telah disingkirkan oleh organisasi, mengambil pendekatan yang tidak konvensional dalam menangkap orang jahat di balik uang kotor,` kata sutradara Lee minggu lalu saat konferensi pers online untuk serial tersebut.\r\n\n`Saya tidak ingin serial ini menjadi serius dan sulit untuk diikuti, jadi penting untuk mendatangkan aktor dengan semangat tinggi dan selera humor.`\r\n\nSaya berperan sebagai akuntan yang berani dan terampil yang menempatkan keahliannya untuk memimpin tim dalam menemukan penghindar pajak. Dia membandingkan perannya dengan yang dia mainkan di serial kantor serupa `Misaeng,` yang menjadi hit pada tahun 2014.\r\n\n`Karakter saya di `Misaeng` adalah pemula sehingga sebagian besar dialog saya adalah saya mengikuti perintah,` katanya. `Tapi sekarang, (sebagai manajer) saya memberi perintah, dan pada awalnya saya pikir itu hal yang baik karena saya berada di peringkat yang lebih tinggi.\r\n\nTapi itu sebenarnya berarti lebih banyak baris untuk dihafal.` Ini adalah proyek kedua yang Im dan Ko kerjakan bersama, sejak mereka membintangi film drama 2016 `A Melody to Remember.` `Saat aku bekerja dengan Ko, kami tidak membutuhkan kata-kata untuk berkomunikasi.\r\n\nDia aktris yang sangat kawakan,` kata Im. `Dia memiliki kemampuan untuk memimpin saya dan melakukan improvisasi apa pun yang saya lakukan.` Ko mencatat bahwa serial ini akan menarik dan ringan, meskipun konsepnya seputar perpajakan.\r\n\n`Saya tidak tahu tentang Dinas Perpajakan Nasional, jadi saya harus membuat citra dari awal dan penelitian, yang menyenangkan,` katanya.\r\n\n`Meskipun serial ini tentang orang-orang di dinas pajak, saya berharap penonton dapat menikmatinya bahkan tanpa pengetahuan dasar tentang layanan tersebut. Chemistry para aktor dan alur plotnya akan membuat serial ini cukup mudah untuk diikuti. Dan itu akan memberi pemirsa rasa kepuasan dengan kisah-kisah menangkap orang jahat.`\r\n\n`Tracer` ditayangkan pada hari Jumat dan Sabtu pukul 21:50 dan juga tersedia di Wavve.",
            "sinopsis" : "Serial asli MBC yang baru tayang perdana `Tracer` dimulai dengan awal yang baik, mencetak rating pemirsa tertinggi di antara acara prime-time Jumat, 7 Januari 2022.",
            "bannerBerita":"https://thumb.zigi.id/frontend/thumbnail/2022/01/07/zigi-61d7ac3d2f403-im-siwan-di-drama-tracer_910_512.jpeg",
            "soundtrack":"https://dl.dropbox.com/s/ghlvq4c76eyxsmz/07.%20Full%20Album%20Ost%20Tracer%20Korean%20Drama%20OnGoing%20New%20Playlist%202022%20%28128%20kbps%29.mp3?dl=0",
            "tanggalDibuat":"14 Januari 2022"
        },
        {
            "idKategori":1,
            "judulBerita": "Song Hye Kyo Sering Lakukan Kesalahan Saat Syuting 'Now, We Are Breaking Up', Ini Pemicunya",
            "sumberBerita": "wowkeren.com",
            "isMovieNews":false,
            "isSerialNews":true,
            "jumlahLihat":0,
            "jumlahLike":0,
            "jumlahKomen":0,
            "pilihan":false,
            "isiBerita":"`Now, We Are Breaking Up` memang sudah mengakhiri penayangan cukup lama. Meski begitu, tim produksi drama SBS yang dibintangi oleh Song Hye Kyo dan Jang Ki Yong ini masih rajin menghadirkan video di balik layar yang pastinya bakal sayang jika dilewatkan.\r\n\nVideo kali ini memperlihatkan beberapa momen ketika Song Hye Kyo melakukan kesalahan di lokasi syuting `Now, We Are Breaking Up`. Yang menarik, pemicunya adalah karena sang aktris cantik tak bisa berhenti menahan tawanya.\r\n\nVideo dibuka dengan momen saat Song Hye Kyo dan Kim Joo Hun. Mendengar dan menatap sang aktor yang berbicara, Song Hye Kyo langsung tertawa. `Mengapa kau menertawakanku,` ujar Kim Joo Hun usai Song Hye Kyo minta maaf.\r\n\n`Aku jadi teringat tuan Hwang (Joo Jin Mo) ketika aku melihat wajahmu,` ujar Song Hye Kyo yang membuat lawan mainnya ikut tertawa. `Apa karena ritme yang aku ucapkan?` tanya Kim Joo Hun yang langsung dibantah oleh Song Hye Kyo.\r\n\n`Tidak, aku baru saja tiba-tiba teringat padanya,` jawab Song Hye Kyo. Kim Joo Hun mengatakan ia akan lebih cepat mengucapkan dialognya namun Song Hye Kyo menolaknya. Ketika proses syuting dimulai lagi, Song Hye Kyo kembali gagal berkonsentrasi.\r\n\nMomen lainnya saat Song Hye Kyo melakukan kesalahan karena tidak bisa menahan tawa adalah ketika syuting dengan Jang Ki Yong. Pasangan utama `Now, We Are Breaking Up` itu awalnya berlatih dialog namun berakhir beradu kata.\r\n\nSaat proses syuting dimulai, di mana Song Hye Kyo harus meminum minumannya. Namun pemeran karakter Ha Young Eun itu kembali tertawa. `Mari kita coba lagi. Aku terjebak sesuatu yang aneh. Apa yang kulakukan? Aku dalam masalah. Kupikir aku kehilangan itu. Maafkan aku,` ungkap Song Hye Kyo.\r\n\nSementara itu, `Now, We Are Breaking Up` menceritakan tentang percintaan di industri fashion antara Ha Young Eun, seorang desainer dan Yoon Jae Guk (Jang Ki Yong). Keduanya terjebak dalam percintaan rumit karena tak direstui orangtua.",
            "sinopsis" : "'Now, We Are Breaking Up' Menceritakan Kisah Ha Young Eun (Song Hye Kyo) Dan Yoon Jae Guk (Jang Ki Yong). Keduanya Terjebak Dalam Percintaan Rumit Karena Tak Direstui Orangtua.",
            "bannerBerita":"https://www.wowkeren.com/display/images/300x188/2022/01/14/00406090.jpg",
            "soundtrack":"https://dl.dropbox.com/s/uz62spnz9231a2j/08.%20Car%2C%20The%20Garden%20%28%EC%B9%B4%EB%8D%94%EA%B0%80%EB%93%A0%29%20-%20%27Stay%27%20Now%20We%20Are%20Breaking%20Up%20%28%EC%A7%80%EA%B8%88%2C%20%ED%97%A4%EC%96%B4%EC%A7%80%EB%8A%94%20%EC%A4%91%EC%9E%85%EB%8B%88%EB%8B%A4%29%20OST%206%20Lyrics_%EA%B0%80%EC%82%AC%20%5BHan_Rom_Eng%5D%20%28128%20kbps%29.mp3?dl=0",
            "tanggalDibuat":"14 Januari 2022"
        },
        {
            "idKategori":1,
            "judulBerita": "Lee Jin Wook Peluk Kwon Nara Dari Belakang, Petunjuk Babak Ke-2 'Bulgasal: Immortal Souls' Terungkap",
            "sumberBerita": "wowkeren.com",
            "isMovieNews":false,
            "isSerialNews":true,
            "jumlahLihat":0,
            "jumlahLike":0,
            "jumlahKomen":0,
            "pilihan":false,
            "isiBerita":"Menyambut paruh kedua, `Bulgasal: Immortal Souls` menjanjikan babak yang lebih menarik. Baru-baru ini, tvN merilis foto-foto adegan Lee Jin Wook, Kwon Nara, Lee Joon dan Gong Seung Yeon.\r\n\n`Bulgasal: Immortal Souls` bercerita tentang Dan Hwal (Lee Jin Wook) di mana ia lahir dengan kutukan bulgasal, makhluk abadi yang tidak bisa mati dan dibunuh. Dalam perburuan monster, Dan Hwal yang dulunya manusia berubah menjadi bulgasal setelah ditusuk pedang sehingga jiwanya berpindah pada sesosok bulgasal wanita (Kwon Nara).\r\n\nSelama 600 tahun berselang, Dan Hwal mencari reinkarnasi wanita abadi yang mengambil jiwanya. Sampai akhirnya ia bertemu dengan Min Sang Woon dengan wajah sama tapi tidak punya ingatan tentang kehidupan lalu. Takdir semakin membingungkan karena ternyata istrinya di masa lalu, Dan Sol (Gong Seung Yeon), bereinkarnasi sebagai adik Min Sang Woon yang bernama Min Si Ho.\r\n\nDalam foto adegan yang baru diunggah, tampak Dan Hwal sedang memeluk Min Sang Woon dari belakang. Ok Eul Tae (Lee Joon) yang diselimuti amarah dan Min Si Ho memejamkan mata seperti sedang menerawang sesuatu. Selain itu, tim produksi mengungkap ada beberapa hal yang perlu diperhatikan dalam jalan cerita `Bulgasal: Immortal Souls` menjelang babak kedua.\r\n\nPertama, tentang hubungan Dan Hwal dan Min Sang Woon yang semakin mendebarkan serta kebenaran apa yang tersimpan di balik perubahan itu. Dan Hwal merasa iba pada Min Sang Won yang menganggapnya sebagai pedang pembunuh bulgasal ketika menyadari bahwa Ok Eul Tae lah pembunuh keluarganya 15 tahun lalu.\r\n\nPoin kedua, ingatan Min Sang Woon yang muncul bak fragmen. Sedangkan selama ini ia hidup dengan anggapan bahwa kakak kembarnya yang bereinkarnasi beberapa kali, sementara jiwa Dan Hwal juga ada dalam dirinya. Rahasia tentang mengapa bulgasal wanita terlahir kembar dan kebenaran dari 600 tahun terkait pembantaian keluarga Dan Hwal juga akan terungkap.\r\n\nKetiga, kebenaran tentang Ok Eul Tae yang sudah hidup selama seribu tahun juga akan terungkap. Meski hidup abadi, ia mendapat kutukan lubang hitam di dada dan membuatnya selalu memburu Min Sang Woon di kehidupan-kehidupan sebelumnya.\r\n\nKemudian ada Min Si Ho yang membawa kemampuan Dan Sol membaca masa lalu dengan sentuhan 600 tahun lalu. Tim produksi mengisyaratkan adanya titik balik dalam hubungan para karakter utama dan lainnya yang terjalin dalam pusaran karma dan rahasia \r\n\nTim produksi berkata, `Di babak kedua, akan ada keseruan yang menyatukan petunjuk dan garis ganda dari kisah seribu tahun lalu yang membuat pemirsa penasaran akan terpecahkan, jadi tolong nantikan dan perhatikan.`\r\n\nSementara itu, `Bulgasal: Immortal Souls` episode selanjutnya dapat disaksikan pada 15 Januari mendatang. Drama ini tayang setiap hari Sabtu dan Minggu pukul 21.00 waktu setempat. Namun episode 9 bakall disiarkan pukul 22.10 karena ada siaran pertandingan persahabatan tim sepak bola Korea Selatan.",
            "sinopsis" : "Memasuki Babak Kedua, Tim Produksi 'Bulgasal: Immortal Souls' Membagikan Foto-Foto Adegan Lee Jin Wook Dan Kwon Nara Cs. Berikut Ini Hal-Hal Yang Perlu Diperhatikan Selama Cerita",
            "bannerBerita":"https://www.wowkeren.com/display/images/300x188/2022/01/14/00406179.jpg",
            "soundtrack":"https://dl.dropbox.com/s/ozqe2kh8lwaxtv6/09.%20%5BOFFICIAL%20AUDIO%5D%20%ED%8F%AC%EB%A7%A8%20%284MEN%29%20-%20%ED%95%98%EB%A3%A8%20__%20%EB%B6%88%EA%B0%80%EC%82%B4%28Bulgasal_%20Immortal%20Souls%20OST%29%20OST%20Part.1%20%28128%20kbps%29.mp3?dl=0",
            "tanggalDibuat":"14 Januari 2022"
        },
        {
            "idKategori":3,
            "judulBerita": "5 Fakta Virgin The Series Tayang Perdana 14 Januari 2022",
            "sumberBerita": "celebrity.okezone.com",
            "isMovieNews":false,
            "isSerialNews":true,
            "jumlahLihat":0,
            "jumlahLike":0,
            "jumlahKomen":0,
            "pilihan":false,
            "isiBerita":"Virgin The Series akan tayang perdana pada Jumat, 14 Januari 2022 di Disney+ Hotstar. Serial ini akan tayang 10 episode dengan jalan cerita yang bagus. Sebelum menonton, berikut adalah lima fakta tentang Virgin The Series yang perlu Anda ketahui. Yuk simak ulasannya!\r\n\n 1. Ulang kesuksesan The Virgin di 2004\r\n\nVirgin the Series tentunya akan terlihat berbeda dibandingkan dengan film Virgin lantaran mengusung genre drama thriller. Kendati demikian, akan tetap ada benang merah antara Virgin the Series dengan film Virgin yang tayang di 2004, 2009, dan 2011. \r\n\n`Virgin 2004 itu adalah salah satu film yang masuk ke jajaran film besar, jadi gue nonton. Kalau ditanya ada benang merahnya, sangat ada,` ungkap Winky Wiryawan dalam konferensi pers virtual Virgin the Series, Kamis (13/1/2022).\r\n\n2. Genre Keluarga\r\n\nSementara itu, meski Virgin the Series mayoritas diperankan oleh artis-artis muda, bukan berarti tayangan ini tak cocok untuk ditonton oleh para orangtua. Pria yang berprofesi sebagai seorang DJ ini bahkan mengatakan bahwa Virgin the Series juga cocok untuk disaksikan oleh orangtua yang memiliki anak berusia remaja.\r\n\n `Orangtua yang seumur gue, gue kan 43 tahun dan banyak orang seumur gue yang udah punya anak dan segala macam. Pingin kalau pas nonton ini ada something yang harus kita lihat, bahwa ini pesan moralnya tinggi. Makanya kalau nonton kalian akan dapat pesan moral yang tinggi sekali,` jelas Winky. \r\n\n 3. Cast\r\n\n Virgin The Series akan diperankan Zara Adhisty (Talita), Shaloom Razade (Briana atau Bee), Arla Arliani (Keke), Alzi Makers (Hiro) dan Winky Wiryawan (Lukman Sanjaya) \r\n\n 4. Tema Remaja\r\n\n Masih sama dengan Virgin versi film, Virgin the Series juga mengangkat tema terkait keresahan remaja. Namun dalam versi series,\r\n\nVirgin akan lebih mengedepankan kehidupan remaja di era digital. \r\n\n `Intinya tetap tentang keresahan remaja, di tengah era digital saat ini. Jadi aku berharap sih teman-teman yang masih seumuran kita pada nonton, karena untuk antisipasi kedepannya. Dan series ini juga bukan hanya untuk remaja, tapi orang tua. Jadi bisa bijak menggunakan media sosial,` timpal Adhisty Zara. \r\n\n 5. Sipnosis\r\n\n Ternyata Series Ini punya sipnosis yang menarik juga  lho! Series karya sutradara Monty Tiwa ini diketahui akan menceritakan tentang kisah seorang gadis SMA yang berasal dari keluarga sederhana bernama Talita. Demi mengejar beasiswa Jurnalistik, Talita mengajak teman-temannya untuk menyelidiki kasus kematian gadis populer di sekolahnya, yakni Keke.",
            "sinopsis" : "Talita bersama teman-temannya sepakat untuk membuat sebuah video dokumenter investigasi demi mengusut tuntas kematian Keke di hari ulang tahunnya yang ke 17. Mereka bahkan berusaha untuk membongkar apa saja yang ada dibalik kasus tersebut.",
            "bannerBerita":"https://statik.tempo.co/data/2022/01/13/id_1080696/1080696_720.jpg",
            "soundtrack":"https://dl.dropbox.com/s/s55nm8b9pm1n4cw/10.%20BEHIND%20THE%20CLOUDS%20%28Cover%29%20-%20Video%20Musik%20-%20VIRGIN%20The%20Series%2014%20Januari%20di%20DISNEY%2B%20HOTSTAR%20-%204K%20%28128%20kbps%29.mp3?dl=0",
            "tanggalDibuat":"14 Januari 2022"
        },
        {
            "idKategori":3,
            "judulBerita": "Tetap Produktif di Tengah Pandemi Covid-19, Ernest Prakasa Jadi Lebih Bawel",
            "sumberBerita": "kompas.com",
            "isMovieNews":false,
            "isSerialNews":true,
            "jumlahLihat":0,
            "jumlahLike":0,
            "jumlahKomen":0,
            "pilihan":false,
            "isiBerita":"Sutradara sekaligus komika Ernest Praksa tetap produktif berkarya di tengah pandemi Covid-19. Ernest Prakasa menuturkan, dalam kondisi saat ini ia harus beradaptasi dengan cara kerja yang baru. Karena itu, Ernest tetap syuting serial garapannya, yakni Imperfect The Series season 2, dan sekarang serial tersebut masih dalam proses penyuntingan. \r\n\n Tak dipungkiri syuting di tengah kondisi pandemi Covid-19 membuat Ernest lebih bawel demi keamaan bersama. \r\n\n `Tetap produktif, cuma ya beradaptasi dengan deg-degannya, dengan harus bawelin 'eh masker pakai masker' dan harus berdamai (dengan keadaan),` kata Ernest Prakasa dikutip dari kanal YouTube CXO Media, Jumat (10/12/2021). \r\n\n Ernest bercerita, ia sempat mati suri untuk memproduksi karyanya saat awal pandemi Covid-19 muncul Indonesia. \r\n\n `Karena mindset gue gini, nanti sajalah ya produktifnya kalau keadaan sudah balik normal. Ternyata enggak normal-normal,` tutur Ernest. Pada akhirnya, kata Ernest, mau tidak mau ia harus menerima keadaan yang mulai mengubah cara kerjanya. \r\n\nSetelah berdamai dengan keadaan, sutradara film Cek Toko Sebelah itu mengaku baru bisa kembali produktif. \r\n\n `The new normal atau the temporary normal itu ya kayak gini jadi ya just live with it. Setelah berdamai dengan itu baru bisa mulai produktif,` tutur Ernest Prakasa.",
            "sinopsis" : "Saat Dika belum bertemu dengan Rara (versi film). Mengisahkan kehidupan penghuni Kost; Perjalanan cinta Neti, Maria yang beradaptasi dengan kehidupan kota, Prita yang selalu berselisih dengan adiknya, dan Endah mengenai permasalah di kampus dan rencana orangtuanya menikahkan dengan pengusaha dari kampungnya.",
            "bannerBerita":"https://apahabar.com/wp-content/uploads/2021/02/e1982eb6-4837-45fe-89b7-eab98d72643a.jpg",
            "soundtrack":"https://dl.dropbox.com/s/vm5cstjwtzg8fr7/11%20Fiersa%20Besari%20-%20Pelukku%20untuk%20Pelikmu%20%28OST%20Imperfect_%20Karier%2C%20Cinta%2C%20%26%20Timbangan%20-%20Tayang%2019%20Des%29%20%28128%20kbps%29.mp3?dl=0",
            "tanggalDibuat":"14 Januari 2022"
        },
        {
            "idKategori":3,
            "judulBerita": "Bintangi Tersanjung The Series, Jessica Mila Sampai Tak Bisa Tertawa",
            "sumberBerita": "suara.com",
            "isMovieNews":false,
            "isSerialNews":true,
            "jumlahLihat":0,
            "jumlahLike":0,
            "jumlahKomen":0,
            "pilihan":false,
            "isiBerita":"Jessica Mila didapuk memerankan karakter Indah dalam Tersanjung The Series. Menurutnya, memerankan karakter Indah membuatnya stres sampai tak bisa tertawa. \r\n\n `Pulang dari syuting, aku sempat sampai enggak bisa bercanda, nggak bisa ketawa-ketawa, karena benar-benar mau fokus untuk ngalamin emosinya,` kata Jessica Mila di kawasan Kuningan, Jakarta Selatan, Jumat (3/12/2021). \r\n\n Karakter Indah penuh emosi dan air mata baik di sinetron atau series Tersanjung. Tak pernah mengalami pengalaman-pengalaman sepahit Indah, membuat Jessica Mila kesulitan. \r\n\n `Kesulitan aku, Indah itu kan sepanjang hidup mengalami banyak cobaan yang berat-berat banget. Banyak emosi-emosi yang belum pernah aku rasain,` ujar bintang film Imperfect ini. \r\n\n Meski begitu Jessica Mila tak bisa membocorkan adegan-adegan sulit yang dilaluinya itu. Kekasih Yakup Hasibuan itu hanya menyebut tak bisa membayangkan jika di posisi Indah\r\n\n `Aku enggak tahu apa ya, gimana ya emosinya , saat aku ngalamin kejadian ini apa ya yang akan aku lakukan,` imbuh Jessica Mila. \r\n\n `Jadi nggak kebayang gimana sih rasanya jadi Indah,` katanya menyambung. \r\n\n Oleh karena itu, Jessica Mila jadi jarang bercanda tawa selama syuting. Ia ingin fokus membangun karakter Indah yang merana. \r\n\n `Jadi harus konsentrasi ekstra dan harus benar-benar fokus sama syuting,` tutur Jessica Mila. \r\n\n Tersanjung The Series diperankan oleh Jessica Mila, Rayn Wijaya, Rezky Aditya, Clairine Clay, Afif Xafi, Doni Damara, dan banyak lagi. Series ini akan mulai tayang di aplikasi WeTV mulai 8 Desember 2021.",
            "sinopsis" : "Indah merupakan gadis cantik dengan hidup yang tragis. Setelah ditinggal oleh orang tuanya, Indah berjuang menghadapi hidupnya yang pahit dan berliku. Semua perlahan berubah saat Bobby mulai masuk ke dalam hatinya.",
            "bannerBerita":"https://correcto.id/content/images/th1_2021091610471418959.jpg",
            "soundtrack":"https://dl.dropbox.com/s/was9ops3y8ue5vc/12%20Retno%20Susanti%20-%20Tersanjung%20%28OST.%20Tersanjung%29%20%28Clear%20Sound%20Not%20Karaoke%29%20%28128%20kbps%29.mp3?dl=0",
            "tanggalDibuat":"14 Januari 2022"
        },
        {
            "idKategori":1,
            "judulBerita": "Train to Busan",
            "sumberBerita": "suara.com",
            "isMovieNews":true,
            "isSerialNews":false,
            "jumlahLihat":0,
            "jumlahLike":0,
            "jumlahKomen":0,
            "pilihan":false,
            "isiBerita":"Train to Busan (Hangul: 부산행; RR: Busanhaeng; Hanja: 釜山行, Kereta ke Busan) adalah sebuah film hantu seru bertema bencana mayat hidup asal Korea tahun 2016 yang disutradarai oleh Yeon Sang-ho dan dibintangi oleh Gong Yoo, Jung Yu-mi dan Ma Dong-seok. Film tersebut tayang perdana dalam sesi Penayangan Tengah Malam di Festival Film Cannes 2016 pada 13 Mei. Pada 7 Agustus, film tersebut pencetak rekor sebagai film Korea pertama pada 2016 yang memecahkan rekor lebih dari 10 juta penonton.\r\n\nSebuah prekuel animasi, Seoul Station, dirilis kurang dari sebulan kemudian. Film tersebut bercerita tentang reuni Gong Yoo dan Jung Yu-mi sejak Silenced.",
            "sinopsis" : "Film Train to Busan ini menceritakan tentang bagaimana manusia akan bertahan hidup ditengah bencana zombie apocalypse. Train to Busan menceritakan bagaimana Seok Woo yang diperankan oleh Gong yoo bertahan hidup untuk bertemu dengan anak dan istrinya saat wabah zombie menyerang Korea.",
            "bannerBerita":"https://assets.promediateknologi.com/crop/0x0:0x0/x/photo/2021/10/11/1367188063.jpg",
            "soundtrack":"https://dl.dropbox.com/s/2r94764cxj4gxdk/train%20to%20busan%20%28mp3cut.net%29.mp3?dl=0",
            "tanggalDibuat":"14 Januari 2022"
        },
        {
            "idKategori":1,
            "judulBerita": "Time to Hunt",
            "sumberBerita": "kumparan.com",
            "isMovieNews":true,
            "isSerialNews":false,
            "jumlahLihat":0,
            "jumlahLike":0,
            "jumlahKomen":0,
            "pilihan":false,
            "isiBerita":"Demi bertahan hidup di tengah krisis, seorang pencuri ulung harus bertaruh nyawa dengan membobol rumah judi. Belum genap seminggu bebas dari penjara, Joon Seok (Lee Je Hoon) kembali mengumpulkan dua sahabatnya untuk aksi terakhir mereka. Bersama Jang Ho (Ahn Jae Hong) dan Ki Hoon (Choi Woo Sik), sang pencuri ulung mengincar tempat judi ilegal terbesar di Korea Selatan. Alasannya? Dengan situasi ekonomi yang kian memburuk, pencurian mata uang Won hanya akan berakhir sia-sia. Jika Joon Seok berhasil membobol uang bernilai jutaan Dolar AS di rumah judi tersebut, maka bisa dipastikan ia akan kaya raya. Sang Soo (Park Jung Min) menjadi orang dalam yang berhasil direkrut ke dalam tim, diikuti Bong Sik (Cho Seong Ha) sebagai penyedia senjata.\r\n\nDengan kerja sama yang apik, keempatnya ini berhasil menggasak sejumlah uang beserta hard drive rekaman CCTV. Guna menghindari kecurigaan, Sang Soo memutuskan untuk kembali ke rumah judi dan menjalani pekerjaan seperti biasa. Joon Seok dan Jang Ho memilih tinggal sementara di rumah orang tua Ki Hoon hingga situasi dirasa kondusif. Tanpa disadari oleh Joon Seok, ia membuat kesalahan besar dengan mencuri hard drive berisi rekaman percakapan penting. Pemilik rumah judi pun memerintahkan pembunuh bayaran Han (Park Hae Soo) untuk melacak keberadaan Joon Seok. Bong Sik menjadi orang pertama yang berhasil ditemukan Han Setelah dipaksa memberi tahu lokasi teman-temannya, ia pun harus meregang nyawa. Baca juga: Sinopsis The Guest, Misi Besar Mengalahkan Iblis, Segera di Netflix Han menemui Sang Soo, membunuhnya, dan merampas telepon genggam miliknya. Dari sini ia berhasil menghubungi Joon Seok. Saat menyadari suara di ujung telepon bukanlah Sang Soo, Joon Seok langsung mencari dua sahabatnya dan segera melarikan diri.",
            "sinopsis" : "Film terbaru Choi Woo Shik ini memiliki sinopsis yang tidak kalah seru untuk dibedah. Usai sukses bintangi film Parasite, Choi Woo Shik kembali bintangi film yang bergenre thriller kejahatan karya Yoon Sung-hyun, Time To Hunt. Film yang berdurasi 134 menit ini berada dibawah naungan studio produksi Sidus.\r\n\nTidak hanya dibintangi oleh Choi Woo Shik, namun sederet selebriti kenamaan Korea Selatan pun juga turut ambil peran dalam film ini. Sementara itu, film korea Time to Hunt berkisah tentang kehidupan di kota yang kacau balau, dimana sebagian masyarakat dilanda kemiskinan berat, krisis ekonomi dan demo di mana-mana. ",
            "bannerBerita":"https://t-2.tstatic.net/tribunnewswiki/foto/bank/images/film-time-to-hunt.jpg",
            "soundtrack":"https://dl.dropbox.com/s/nrqc0sjuh4qddc5/time%20to%20hunt%20%28mp3cut.net%29.mp3?dl=0",
            "tanggalDibuat":"14 Januari 2022"
        },
        {
            "idKategori":3,
            "judulBerita": "Teka Teki Tika",
            "sumberBerita": "kabarbanten.com",
            "isMovieNews":true,
            "isSerialNews":false,
            "jumlahLihat":0,
            "jumlahLike":0,
            "jumlahKomen":0,
            "pilihan":false,
            "isiBerita":"Film Teka-Teki Tika berawal dari satu keluarga besar yang hidup bahagia dan harmonis.\r\n\nNamun, pada suatu hari Budiman (Ferry Salim), sang kepala keluarga didatangi oleh seorang wanita yang bernama Tika (Sheila Dara Aisha).\r\n\nTika hadir di tengah perayaan ulang tahun pernikahan Budiman dan istrinya. Tika mengaku sebagai anak kandung Budiman.\r\n\nKehadiran Tika bersamaan dengan usaha Budiman yang mengalami kredit macet. Keadaan pun semakin rumit. Terlebih, keluarga yang harmonis tersebut langsung terusik dengan kehadiran Tika ditengah-tengah keluarga. Di balik kehadiran Tika dan perpecahan keluarga, tersimpan rahasia besar yang belum terungkap.Benarkah Tika anak kandung Budiman? Akankah teka-teki ini dapat terungkap?\r\n",
            "sinopsis" : "Film Teka-Teki Tika merupakan film besutan Ernest Prakasa selaku sutradara.Film Teka-Teki Tika dibintangi oleh Sheila Dara, Ferry Salim, Jenny Zhang, Dion Wiyoko, Eriska Rein, Morgan Oey dan Tansri Kemala.Film Teka Teki-Tika bergenre misteri thriller berbalut komedi ini mengisahkan tentang sebuah keluarga besar kaya raya yang harmonis. Dilansir Kabar Banten dari Instagram @starvisionplus, film Teka Teki-Tika akan tayang di bioskop pada 23 Desember 2021.",
            "bannerBerita":"https://static.republika.co.id/uploads/images/inpicture_slide/070891300-1639673502-61aa26c44409b-film-teka-teki-t.jpg",
            "soundtrack":"https://dl.dropbox.com/s/1d8np166o21sq0a/teka%20teki%20tika.mp3?dl=0",
            "tanggalDibuat":"14 Januari 2022"
        },
        {
            "idKategori":2,
            "judulBerita": "Mission Impossible - Fallout",
            "sumberBerita": "tirto.id",
            "isMovieNews":true,
            "isSerialNews":false,
            "jumlahLihat":0,
            "jumlahLike":0,
            "jumlahKomen":0,
            "pilihan":false,
            "isiBerita":"Film ini berlatar dua tahun setelah penangkapan pemimpin Syndicate, Solomon Lane. Anggota Syndicate yang tersisa masih berambisi mengacaukan dunia dan membentuk organisasi baru bernama Apostles. Sementara itu, Ethan Hunt diberi misi untuk mendapatkan tiga inti plutonium di Berlin. Ethan harus mendapatkannya terlebih dahulu sebelum barang berbahaya tersebut jatuh ke tangan Apostles. Ethan menjalankan misinya bersama Benji Dunn (Simon Pegg) dan Luther Stickell (Ving Rhames). Namun sayangnya misi tersebut gagal karena Luther ditangkap dan disandera. Ethan memilih untuk menyelamatkan rekannya, sedangkan Apostles akhirnya berhasil mendapatkan inti plutonium. Kegagalan misi ini tak ayal membuat CIA marah besar. Saat Ethan berusaha untuk kembali merebut plutonium tersebut, CIA mengutus agennya yang bernama August Walker (Henry Cavill) untuk mengawasi Ethan. Mau tak mau Ethan harus bekerja sama dengan August dan menyusup ke sebuah pesta di Paris. Di pesta itu, diyakini ada seorang ekstremis bernama John Lark yang hendak membeli plutonium pada White Widow (Vanessa Kirby). Ethan berhasil menyamar sebagai John Lark, tapi mendapatkan plutonium bukan perkara mudah. Pasalnya, White Widow hanya bersedia menyerahkan plutonium asalkan Solomon Lane dibebaskan. Konflik semakin memanas ketika muncul dugaan bahwa ada anggota Apostles yang menyusup ke CIA. Usaha Ethan mengamankan plutonium pun semakin sulit, apalagi Solomon berusaha meledakkan bom nuklir demi mewujudkan impiannya membuat tatanan dunia baru.\r\n\nBerhasilkah Ethan menyelamatkan dunia kali ini?\r\n",
            "sinopsis" : "Bioskop Trans TV malam ini akan menghadirkan film laga Mission Impossible: Fallout. Bila tak ada perubahan jadwal, film yang dirilis tahun 2018 tersebut akan ditayangkan pada hari Minggu, 30 Mei 2021, pukul 21.30 WIB. Film keenam dari seri Mission Impossible ini masih bercerita tentang Ethan Hunt sebagai agen IMF. Kali ini, Ethan Hunt harus bekerja sama dengan agen CIA dalam menjalankan misi menyelamatkan dunia dari bom nuklir yang mematikan.",
            "bannerBerita":"https://img.celebrities.id/D186FQ/master_13B4Ar99JG_1064.jpg",
            "soundtrack":"https://dl.dropbox.com/s/radzx78jnp5nl0g/mision%20imposible%20%28mp3cut.net%29.mp3?dl=0",
            "tanggalDibuat":"14 Januari 2022"
        },
        {
            "idKategori":3,
            "judulBerita": "Losmen Bu Broto",
            "sumberBerita": "cnnindonesia.com",
            "isMovieNews":true,
            "isSerialNews":false,
            "jumlahLihat":0,
            "jumlahLike":0,
            "jumlahKomen":0,
            "pilihan":false,
            "isiBerita":"Losmen Bu Broto  adalah film drama Indonesia tahun 2021 yang diproduksi oleh Ideosource Entertainment, Paragon Pictures, Fourcolours Films, dan Ideoworks. Film ini diadaptasi dari serial TVRI berjudul Losmen. Film ini disutradarai oleh Ifa Isfansyah dan Eddie Cahyono serta diproduseri oleh Andi Boediman.[2] Film tersebut dibintangi oleh Mathias Muchus sebagai Pak Broto dan Maudy Koesnaedi sebagai Bu Broto. Film ini juga dibintangi oleh Maudy Ayunda, Putri Marino, Baskara Mahendra, Danilla Riyadi, dan Marthino Lio\r\n\nFilm Losmen Bu Broto merupakan prekuel serial legendaris Losmen yang tayang di TVRI pada medio 1980-an. Film ini mengisahkan keseharian Pak Broto dan Bu Broto mengelola losmen bersama tiga anaknya.\r\n\nBerikut sinopsis Losmen Bu Broto yang dibintangi Maudy Koesnaedy dan Mathias Muchus ini.Seperti serialnya, film Losmen Bu Broto menceritakan drama keluarga yang berpusat pada keseharian Bu Broto (Maudy Koesnaedy) dan Pak Broto (Mathias Muchus). Mereka memiliki sebuah losmen yang sering dikunjungi wisatawan. FILM LOSMEN BU BROTO, Jejak Serial Indonesia, Losmen Bu Broto ke Gossip Girl Lokal Ucapan, Salah Alamat, Mpok Maudy dan Maudy Ayunda Saling Sahut Maudy Ayunda Cemas Saat Baca Naskah Film Losmen Bu Broto. Pak Broto dan istrinya dikenal ramah kepada semua orang. Keramahan itu yang membuat mereka dekat dengan tamu-tamu losmennya.Dalam mengelola losmen tersebut, mereka dibantu ketiga anaknya dengan tanggung jawab masing-masing. Mbak Pur (Putri Marino), anak pertama Pak Broto ini bertanggung jawab di dapur. Sementara itu, anak keduanya bernama Jeng Sri (Maudy Ayunda) memiliki hobi menyanyi dan bersuara merdu. Jeng Sriini sering tampil bersama Kirana dalam sebuah grup vokal bernama Matahati.\r\n\nKemudian, Tarjo (Baskara Mahendra) yang masih berkuliah juga ikut mengurus losmen keluarganya.\r\n\nKonflik dalam Losmen Bu Broto mulai hadir ketika Jeng Sri didekati seorang seniman lepas bernama Jarot (Marthino Lio).Film Losmen Bu Broto disutradarai Ifa Isfansyah dan Eddie Cahyono. Ifa maupun Eddi mengatakan cerita dalam film ini dapat dinikmati oleh masyarakat luas. Hal itu yang menjadi dasar ketika menggarap film tersebut.\r\n",
            "sinopsis" : "Losmen Bu Broto menjadi sekuel dari seri televisi Losmen dengan menceritakan keseharian Pak Broto dan Bu Broto mengelola sebuah losmen keluarga dengan ketiga anaknya. Film tersebut tayang pada 18 November 2021 di bioskop.",
            "bannerBerita":"https://milenianews.com/wp-content/uploads/2021/01/losmenbubroto.jpg",
            "soundtrack":"https://dl.dropbox.com/s/oi3a7mb8gplj08t/lostmen%20bu%20broto%20%28mp3cut.net%29.mp3?dl=0",
            "tanggalDibuat":"14 Januari 2022"
        },
        {
            "idKategori":2,
            "judulBerita": "Bagian terakhir dari waralaba Ip Man yang dirilis pada Desember 2019 lalu, baru-baru ini ditayangkan kembali di TV nasional Tanah Air.",
            "sumberBerita": "liputan6.com",
            "isMovieNews":true,
            "isSerialNews":false,
            "jumlahLihat":0,
            "jumlahLike":0,
            "jumlahKomen":0,
            "pilihan":false,
            "isiBerita":"Dilansir Antara News pada Kamis (30/09/2021), begitu dirilis Ip Man 4: The Finale menempati posisi pertama di tangga box office China dalam sepekan, mengungguli 'Star Wars: The Rise of Skywalker' di tempat ketiga. Tiga hari sejak dirilis, Ip Man 4 berhasil mengumpulkan sekitar 43 juta dolar AS atau setara dengan 614 miliar rupiah atau setidaknya 45 persen dari total box office domestik.\r\n\nFilm pertama dalam waralaba ini dirilis pada 2008 masih dengan tajuk yang sama Ip Man. Donnie Yen selaku aktor utama melanjutkan pertarungannya di film Ip Man 2 pada tahun 2010 dan Ip Man 3 lima tahun sesudahnya.Film terakhir ini juga masih disutradarai oleh Wilson Yip, penulis skenarionya yaitu Hiroshi Fukuzawa, dan Raymond Wong sebagai produser. Film ini mengambil latar belakang di Amerika Serikat, kota San Fransisco.\r\n",
            "sinopsis" : "Ip Man 4 mengangkat biografi master bela diri Wing Chun. Ip Man yang dimainkan oleh Donnie Yen, tidak pernah berubah sejak sepeninggalan istrinya.\r\n\nDi sisi lain Ip Man harus menerima kenyataan bahwa hubungannya dengan anaknya mulai renggang. Ip Man mencari jalan keluar dari permasalahan itu. Ingin putranya memiliki masa depan yang baik, akhirnya Ip Man menyekolahkan sang anak ke luar negeri.\r\n",
            "bannerBerita":"https://seligfilmnews.com/wp-content/uploads/2020/07/IP-MAN-4-THE-FINALE-Still-7-scaled.jpg",
            "soundtrack":"https://dl.dropbox.com/s/gxsidlto0vkeubv/ip%20man%204.mp3?dl=0",
            "tanggalDibuat":"14 Januari 2022"
        }
    ]
}